{
  "_embedded": {
    "channelDTOList": [
      {
        "creationDate": "2018-06-18T13:51:20.000+0000",
        "linkModels": [
          {
            "link": "https://www.youtube.com/user/Dimxoo",
            "linkType": "youtubeLink"
          }
        ],
        "shortDescription": "Coole Dinge einfach, schnell und günstig selbst zu kreieren und sich inspirieren lassen - alles rund um das Thema DIY (Do It Yourself) gibt&#39;s auf dem Videoblog Dimxoo.",
        "type": "format",
        "description": "Im Videoblog ‚Dimxoo‘ geht es rund um das Thema Do It Yourself und Selbstverwirklichung, denn all die coolen Dinge die man online oder in Stores sieht, kann man einfacher, schneller und günstiger als gedacht, selbst nachmachen und so sein Zimmer cool, bunt und mal etwas anders gestalten, seine Freunde mit Geschenken eine Freude machen oder mit leckeren Drinks und Snacks beeindrucken. Jeder ist dazu eingeladen, seine Ideen zu teilen und so bilden wir eine kreative Community, die sich ständig über neue Ideen austauscht, sich gegenseitig inspiriert und kreativ auslebt. Gleichzeitig versuche ich die Message rüber zu bringen, dass es völlig ok ist, wie man ist und es wichtig ist, sich selbst als auch andere zu akzeptieren und zu sich selbst zu stehen. Dabei sollen insbesondere Talkvideos über die LGBTQ+ Community auf meinem Kanal Leuten der Community, aber auch Unbeteiligten zeigen, dass es völlig egal ist, wen man liebt / woran man glaubt / wie man aussieht und dass wir letztendlich alle gleich sind und jeder jeden gleich behandeln und akzeptieren sollte. Der Videoblog ‚Dimxoo‘ ist für jeden, der es liebt neues zu kreieren, sich inspirieren zu lassen, aus alten oder unnützen Dingen wieder etwas besonderes zu machen, anderen eine Freude zu machen und offen für Neues ist – egal ob jung oder alt, jeder ist willkommen und eingeladen hier seine kreativen Ideen auszutausche nund seine kreative Seite zu zeigen.",
        "title": "dimxoo",
        "publicationDate": "2018-08-05T09:00:00.000+0000",
        "importDate": "2019-04-03T11:50:49.791+0000",
        "alias": "dimxoo-11942",
        "updateDate": "2019-04-03T11:50:48.000+0000",
        "imageUrlOrigin": "https://localhost:8589/api/v4.0/thumbnails/5ca49a442e2d560001e5cede",
        "imageUrlLandscape": "https://localhost:8589/api/v4.0/thumbnails/5ca49a442e2d560001e5ced6",
        "imageUrlSquare": "https://localhost:8589/api/v4.0/thumbnails/5ca49a442e2d560001e5ceda",
        "imageUrlPortrait": "https://localhost:8589/api/v4.0/thumbnails/5ca49a442e2d560001e5ced8",
        "entityId": 11942
      },
      {
        "creationDate": "2017-11-06T16:24:31.000+0000",
        "linkModels": [
          {
            "link": "https://www.youtube.com/user/KurzgesagtDE",
            "linkType": "youtubeLink"
          }
        ],
        "shortDescription": "Animationsformat, das komplexe Themen aus Wissenschaft, Forschung, Politik, Philosophie und Technik verständlich und unterhaltsam erklärt.",
        "type": "format",
        "description": "Dinge erklärt – Kurzgesagt ist ein deutscher Wissenschaftskanal der komplexe Themen aus Weltraumforschung, Physik, Biologie, Politik, Philosophie und Technik einfach und verständlich in animierter Form erklärt. Mit Liebe zum Detail werden komplizierte Zusammenhänge durch Storytelling, Illustration und Animation zum Leben erweckt, um möglichst viele Menschen für wissenschaftliche Themen zu begeistern.",
        "title": "Kurzgesagt",
        "publicationDate": "2017-12-27T13:00:00.000+0000",
        "importDate": "2019-04-03T11:50:23.606+0000",
        "alias": "kurzgesagt-11090",
        "updateDate": "2019-04-03T11:50:21.000+0000",
        "imageUrlOrigin": "https://localhost:8589/api/v4.0/thumbnails/5ca49a1f2e2d560001e5ced0",
        "imageUrlLandscape": "https://localhost:8589/api/v4.0/thumbnails/5ca49a1e2e2d560001e5cec5",
        "imageUrlSquare": "https://localhost:8589/api/v4.0/thumbnails/5ca49a1f2e2d560001e5ceca",
        "imageUrlPortrait": "https://localhost:8589/api/v4.0/thumbnails/5ca49a1f2e2d560001e5cec7",
        "entityId": 11090
      },
      {
        "creationDate": "2018-03-09T12:11:08.000+0000",
        "linkModels": [
          {
            "link": "https://funk.net",
            "linkType": "whatsappLink/whatsapp-druck"
          },
          {
            "link": "https://www.instagram.com/ha.nnanananana",
            "linkType": "instagramLink"
          },
          {
            "link": "https://www.youtube.com/channel/UCr5zglOqHZAEfCcAx_nw1dQ",
            "linkType": "youtubeLink"
          }
        ],
        "shortDescription": "Freundschaft, Liebe und die eigene Identität - eure Themen, eure Musik, eure Serie.",
        "type": "series",
        "description": "Für Hanna scheint es nur einen Weg zu geben, alles oder nichts. Glück in allen Belangen ist ihr scheinbar vergönnt. Gerade noch gehört die 16-Jährige zu den beliebtesten Mädchen der Schule und war das stets bewunderte Zentrum ihrer Clique. Doch seitdem sie ihrer besten Freundin Leonie den Freund ausgespannt hat, ist von einer Sekunde auf die andere nichts mehr so, wie zuvor. Hanna hat zwar eine neue Beziehung, aber fernab dessen steht sie völlig alleine da. Ihre Freundinnen haben sich von ihr abgewendet, in den Pausen wird über sie getuschelt. Schlampe ist nur eines der Schimpfworte, die über Hanna kursieren oder ihr auch mal direkt ins Gesicht gesagt werden. Der fehlende Rückhalt macht ihr zu schaffen und da ist auch Freund Jonas keine wirkliche Hilfe. Als Hanna den Verdacht hat, dass er hinter ihrem Rücken wieder etwas mit Leonie am Laufen hat, verliert sie die Nerven und macht einen folgenschweren Fehler.",
        "title": "DRUCK",
        "publicationDate": "2018-03-16T09:00:00.000+0000",
        "importDate": "2019-04-18T08:54:28.895+0000",
        "alias": "druck-11790",
        "updateDate": "2019-04-03T11:45:19.000+0000",
        "entityGroup": 3,
        "imageUrlOrigin": "https://localhost:8589/api/v4.0/thumbnails/5c90c9088179c4000135dd93",
        "imageUrlLandscape": "https://localhost:8589/api/v4.0/thumbnails/5c90c9078179c4000135dd86",
        "imageUrlSquare": "https://localhost:8589/api/v4.0/thumbnails/5c90c9078179c4000135dd8e",
        "imageUrlPortrait": "https://localhost:8589/api/v4.0/thumbnails/5c90c9078179c4000135dd8a",
        "entityId": 11790
      },
      {
        "creationDate": "2018-04-04T09:10:54.000+0000",
        "linkModels": [
          {
            "link": "https://funk.net",
            "linkType": "whatsappLink/whatsapp-reporter"
          },
          {
            "link": "https://www.facebook.com/reporter.offiziell",
            "linkType": "facebookLink"
          },
          {
            "link": "https://www.youtube.com/channel/UCV6W8_nrWxJLQakqBHEvT3Q",
            "linkType": "youtubeLink"
          }
        ],
        "shortDescription": "Journalistisches Videoformat zu gesellschaftlichen und politischen Themen: mutig, investigativ und ergebnisoffen.",
        "type": "format",
        "description": "In einem Umfeld, in dem Meinung und Subjektivität alles ist, gehen wir einen anderen Weg: Wir legen Wert auf Recherche, Transparenz, Unvoreingenommenheit und Relevanz. Wir sind mutig, unideologisch und ergebnisoffen - und haben am Ende des Films einen Erkenntnisge-winn. Meinung machen andere. Wir machen Journalismus.",
        "title": "reporter",
        "publicationDate": "2018-04-10T12:00:00.000+0000",
        "importDate": "2019-04-03T11:40:59.093+0000",
        "alias": "reporter-11853",
        "updateDate": "2019-04-03T11:40:57.000+0000",
        "imageUrlOrigin": "https://localhost:8589/api/v4.0/thumbnails/5ca49bd12e2d560001e5cf4f",
        "imageUrlLandscape": "https://localhost:8589/api/v4.0/thumbnails/5ca49bd02e2d560001e5cf48",
        "imageUrlSquare": "https://localhost:8589/api/v4.0/thumbnails/5ca49bd12e2d560001e5cf4c",
        "imageUrlPortrait": "https://localhost:8589/api/v4.0/thumbnails/5ca49bd02e2d560001e5cf4a",
        "entityId": 11853
      },
      {
        "creationDate": "2017-03-16T11:49:26.000+0000",
        "linkModels": [
          {
            "link": "https://open.spotify.com/show/4us7Lec3iNeAXDoG56Vths",
            "linkType": "spotifyLink"
          },
          {
            "link": "https://itunes.apple.com/us/podcast/id1440036003?l=de",
            "linkType": "itunesLink"
          },
          {
            "link": "https://www.youtube.com/watch?v=jn3wG4z_Scw&list=PLDvBqWb1UAGfdK0lVSzPxZhSp0Q-tuDCP",
            "linkType": "youtubeLink"
          }
        ],
        "shortDescription": "Schlampig animiert und falsch vertont: Kein Song, kein Lieblingsfilm ist sicher vor den Parodien in Coldmirrors Videos.",
        "type": "series",
        "description": "Coldmirror ging mit Fresh D. in Hogwarts zur Schule, studierte an der Uni Versum Farbenlehre für ihr Haar, war mit den Japanoschlampen auf Welttournee in Japan, synchronisierte zahlreiche\r\nWerbe- und Fernsehfilme postperspektivisch, war die Frau Lehrerin von Capitanöse, hat sich bei verschiedenen Song- und Filmtiteln verhört und besitzt keine Feststelltaste. Wenn jemand schlampig animiert, dann Coldmirror.",
        "title": "Coldmirror",
        "publicationDate": "2016-09-30T22:00:00.000+0000",
        "importDate": "2019-04-03T11:40:24.726+0000",
        "alias": "coldmirror-1094",
        "updateDate": "2019-04-03T11:40:23.000+0000",
        "imageUrlOrigin": "https://localhost:8589/api/v4.0/thumbnails/5ca49bac2e2d560001e5cf45",
        "imageUrlLandscape": "https://localhost:8589/api/v4.0/thumbnails/5ca49bac2e2d560001e5cf3d",
        "imageUrlSquare": "https://localhost:8589/api/v4.0/thumbnails/5ca49bac2e2d560001e5cf42",
        "imageUrlPortrait": "https://localhost:8589/api/v4.0/thumbnails/5ca49bac2e2d560001e5cf40",
        "entityId": 1094
      },
      {
        "creationDate": "2018-07-12T09:54:51.000+0000",
        "linkModels": [
          {
            "link": "https://www.youtube.com/channel/UCTFCAxi634M3H_ezo6a1jsA",
            "linkType": "youtubeLink"
          }
        ],
        "shortDescription": "OKAY ist ein Sex-Aufklärungsformat, in dem peinliche oder schwierige Momente aus dem Leben von LGBTQ+Menschen auf satirische Weise in Sketchen dargestellt und eingeordnet werden.",
        "type": "format",
        "title": "Okay",
        "publicationDate": "2018-08-31T22:00:00.000+0000",
        "importDate": "2019-04-03T11:39:56.876+0000",
        "alias": "okay-11953",
        "updateDate": "2019-04-03T11:39:55.000+0000",
        "imageUrlOrigin": "https://localhost:8589/api/v4.0/thumbnails/5ca49b902e2d560001e5cf31",
        "imageUrlLandscape": "https://localhost:8589/api/v4.0/thumbnails/5ca49b902e2d560001e5cf35",
        "imageUrlSquare": "https://localhost:8589/api/v4.0/thumbnails/5ca49b902e2d560001e5cf33",
        "imageUrlPortrait": "https://localhost:8589/api/v4.0/thumbnails/5ca49b902e2d560001e5cf39",
        "entityId": 11953
      },
      {
        "creationDate": "2016-09-15T08:16:53.000+0000",
        "linkModels": [
          {
            "link": "http://facebook.com/bohemianbrowserballett",
            "linkType": ""
          },
          {
            "link": "https://www.youtube.com/BohemianBrowserBallett",
            "linkType": ""
          }
        ],
        "shortDescription": "Chirurgen mit Visionen gehen zu „Ärzte ohne Grenzen“, junge Intellektuelle mit Humor zu den Gag- & Satire-Autoren um Schlecky Silberstein.",
        "type": "format",
        "description": "Hacker mit Visionen gehen zu Anonymous, Chirurgen mit Visionen gehen zu Ärzte ohne Grenzen, Gag-Autoren mit Visionen gehen zum »Bohemian Browser Ballett«. Ihre Adern bestehen aus Glasfaser und je nach Bedarf werden aus dem Schwarm herausragende Regisseure, Schauspieler und Autoren herangezogen. Man munkelt, dass die Königin des Schwarms Schlecky Silberstein persönlich sein soll. Und das sagen die Ballerinas dazu Das »Bohemian Browser Ballett« ist ein Nischenangebot für junge Intellektuelle mit Humor. Das heißt: Wer unsere Beiträge mag, verfügt über einen überdurchschnittlich hohen Intellekt. Man muss sich das wie einen Society Club vorstellen, nur, dass hier nicht das Geld entscheidet, sondern das Niveau. Oder kurz: Das »Bohemian Browser Ballett« liefert beste Unterhaltung für Eliten.",
        "title": "Bohemian Browser Ballett",
        "publicationDate": "2016-09-30T22:00:00.000+0000",
        "importDate": "2019-04-03T11:38:07.361+0000",
        "alias": "bohemian-browser-ballett-800",
        "updateDate": "2019-04-03T11:38:05.000+0000",
        "imageUrlOrigin": "https://localhost:8589/api/v4.0/thumbnails/5ca49b242e2d560001e5cf1b",
        "imageUrlLandscape": "https://localhost:8589/api/v4.0/thumbnails/5ca49b242e2d560001e5cf0e",
        "imageUrlSquare": "https://localhost:8589/api/v4.0/thumbnails/5ca49b242e2d560001e5cf13",
        "imageUrlPortrait": "https://localhost:8589/api/v4.0/thumbnails/5ca49b242e2d560001e5cf0a",
        "entityId": 800
      },
      {
        "creationDate": "2016-09-24T10:45:38.000+0000",
        "linkModels": [
          {
            "link": "https://www.youtube.com/c/offenunehrlich",
            "linkType": "youtubeLink"
          }
        ],
        "shortDescription": "Narren-Spiegel des Webs: Kim & Robert sind offen un(d) ehrlich: Sie veräppeln Clickbaits, entlarven Fakes, parodieren Trends. Und zeigen Katzen.",
        "type": "format",
        "description": "Wer sagt, es gäbe keine doofen Fragen, liegt falsch. offen un’ ehrlich liefert offene, ehrliche Antworten auf alle Fragen. Robert und Kim wollen die Welt ein bisschen ehrlicher machen, denn es geht um nichts anderes als die hässliche Fratze einer von Meinung geprägten Wahrheit. Für Fans des Film-Meisterwerks &#34;Daniel, der Zauberer&#34; mit Daniel Küblböck und natürlich Hackbraten. Und das sagen Robert und Kim über sich: &#34;Wer glaubt, er hätte eine laute Stimme, kennt uns noch nicht. Kims Mundwerk ist nur zu stopfen, wenn man ihr eine Frikadelle in den Rachen schiebt und Robert ist nur kurz mal still, wenn man ihm Katzenvideos zeigt.&#34;",
        "title": "offen un&#39; ehrlich",
        "publicationDate": "2016-09-30T22:00:00.000+0000",
        "importDate": "2019-04-03T11:35:39.696+0000",
        "alias": "offen-un39-ehrlich-968",
        "updateDate": "2019-04-03T11:35:38.000+0000",
        "imageUrlOrigin": "https://localhost:8589/api/v4.0/thumbnails/5ca49a922e2d560001e5cef8",
        "imageUrlLandscape": "https://localhost:8589/api/v4.0/thumbnails/5ca49a912e2d560001e5cef0",
        "imageUrlSquare": "https://localhost:8589/api/v4.0/thumbnails/5ca49a912e2d560001e5cef3",
        "imageUrlPortrait": "https://localhost:8589/api/v4.0/thumbnails/5ca49a912e2d560001e5cef5",
        "entityId": 968
      },
      {
        "creationDate": "2016-09-24T10:39:24.000+0000",
        "linkModels": [
          {
            "link": "https://www.facebook.com/neumeier.moritz",
            "linkType": "facebookLink"
          },
          {
            "link": "https://www.youtube.com/MoritzNeumeierstandup",
            "linkType": "youtubeLink"
          }
        ],
        "shortDescription": "Stand-up-Comedian Moritz zum aktuellen Geschehen und Fragen des Lebens. Intelligent hintergründig, norddeutsch-direkt, mit schwarzem Humor.",
        "type": "format",
        "description": "Moritz Neumeier ist ein Stand-Up-Comedian mit amerikanischem, bissigem Humor und norddeutscher Direktheit. Seit 2005 produziert der 30-Jährige Videos für seine Facebook- und YouTube-Kanäle. Moritz Neumeier analysiert in seinen Videos nicht nur das Weltgeschehen – er kommentiert es auch. Und ja, das kann auch satirisch sein. „Mein Format informiert Leute auf witzige Art und Weise. Das finde ich wichtig, der Kampf gegen die Verblödung beginnt ja jeden Tag von Neuem.“",
        "title": "Auf einen Kaffee mit Moritz Neumeier",
        "publicationDate": "2016-09-30T22:00:00.000+0000",
        "importDate": "2019-04-03T11:35:15.287+0000",
        "alias": "auf-einen-kaffee-mit-moritz-neumeier-779",
        "updateDate": "2019-04-03T11:35:13.000+0000",
        "imageUrlOrigin": "https://localhost:8589/api/v4.0/thumbnails/5ca49a762e2d560001e5cee8",
        "imageUrlLandscape": "https://localhost:8589/api/v4.0/thumbnails/5ca49a762e2d560001e5cee2",
        "imageUrlSquare": "https://localhost:8589/api/v4.0/thumbnails/5ca49a762e2d560001e5ceeb",
        "imageUrlPortrait": "https://localhost:8589/api/v4.0/thumbnails/5ca49a762e2d560001e5cee5",
        "entityId": 779
      },
      {
        "creationDate": "2018-09-26T13:26:04.000+0000",
        "shortDescription": "Stand-up nach US-Vorbild, tiefschwarze Sketch-Comedy und enorm guter Hummus: Shahak Shapira hat viele Talente.",
        "type": "format",
        "description": "Tiefschwarze Sketch-Comedy und misanthropischer Stand-up-Humor – irgendwo zwischen Dave Chapelle und Black Mirror teilt Shahak Shapira hart aus. Böse und in vielen Geschmacksrichtungen. Spoiler Alert: eine davon ist Hummus.",
        "title": "Shapira Shapira",
        "publicationDate": "2019-02-26T17:00:00.000+0000",
        "importDate": "2019-04-18T08:51:04.333+0000",
        "alias": "shapira-shapira-11984",
        "updateDate": "2019-04-03T11:34:42.000+0000",
        "imageUrlOrigin": "https://localhost:8589/api/v4.0/thumbnails/5c8f710d8ce5cb0001d3d046",
        "imageUrlLandscape": "https://localhost:8589/api/v4.0/thumbnails/5c8f710d8ce5cb0001d3d03a",
        "imageUrlSquare": "https://localhost:8589/api/v4.0/thumbnails/5c8f710d8ce5cb0001d3d041",
        "imageUrlPortrait": "https://localhost:8589/api/v4.0/thumbnails/5c8f710d8ce5cb0001d3d03d",
        "entityId": 11984
      }
   ]
  },
  "_links": {
    "self": {
      "href": "http://localhost:8589/v4.0/channels/?page=1&size=10&sort=updateDate,desc"
    },
    "next": {
      "href": "http://localhost:8589/v4.0/channels/?page=2&size=10&sort=updateDate,desc"
    }
  },
  "page": {
    "size": 10,
    "totalElements": 33,
    "totalPages": 4,
    "number": 2
  }
}