{
  "_embedded": {
    "channelDTOList": [
      {
        "creationDate": "2016-09-25T14:28:02.000+0000",
        "linkModels": [
          {
            "link": "https://www.facebook.com/gametwo.official",
            "linkType": "facebookLink"
          },
          {
            "link": "https://www.youtube.com/c/gametwo",
            "linkType": "youtubeLink"
          }
        ],
        "shortDescription": "Das Literarische Quartett der Gaming-Kultur: Spiele-Reviews, Live-Diskussionen u.v.m. mit Witz und kritischen Analysen der Rocket Beans.",
        "type": "format",
        "description": "Gäbe es eine Mischung aus dem Literarischen Quartett und Jackass, würde sie Game Two heißen. Game Two ist ein Live-YouTube-Format, in dem die Rocket Beans mit zwei neuen Gesichtern in der »Bohnen«-Familie wöchentlich auf ihre Art und Weise zeigen, wieso Spielen so viel Spaß macht – und mit welchen Games das ganz besonders gut funktioniert! Über die Macher Egal ob Hardcore-Gamer oder Minesweeper-Fan – in der deutschen Gaming-Szene kommt man um die Rocket Beans nicht herum. Aber die »Bohnen« stehen nicht nur selbst vor der Kamera, sondern produzieren eine Gaming Show für funk. Dafür haben sie zwei frische Gesichter ins Boot geholt, die die alte Welt von »Game One« mit der Neuen von funk verbinden werden.",
        "title": "Game Two",
        "publicationDate": "2016-09-30T22:00:00.000+0000",
        "importDate": "2019-04-03T11:31:52.791+0000",
        "alias": "game-two-856",
        "updateDate": "2019-04-03T11:31:51.000+0000",
        "imageUrlOrigin": "https://localhost:8589/api/v4.0/thumbnails/5ca499af2e2d560001e5ceb7",
        "imageUrlLandscape": "https://localhost:8589/api/v4.0/thumbnails/5ca499ae2e2d560001e5cead",
        "imageUrlSquare": "https://localhost:8589/api/v4.0/thumbnails/5ca499af2e2d560001e5ceaf",
        "imageUrlPortrait": "https://localhost:8589/api/v4.0/thumbnails/5ca499af2e2d560001e5ceb3",
        "entityId": 856
      },
      {
        "creationDate": "2016-09-24T10:32:06.000+0000",
        "linkModels": [
          {
            "link": "https://twitter.com/diefrage_funk",
            "linkType": "twitterLink"
          },
          {
            "link": "https://www.facebook.com/DieFrage",
            "linkType": "facebookLink"
          },
          {
            "link": "https://www.youtube.com/c/diefrage",
            "linkType": "youtubeLink"
          }
        ],
        "shortDescription": "Wie komme ich mit dem Tod klar? Was ist geil an Fetischen? Franks Reportagen suchen Antworten, stellen besondere Menschen vor.",
        "type": "format",
        "description": "Wie schlimm ist Knast? Warum haten wir so viel im Netz? Wie können wir mit dem Tod klarkommen? Und es gibt noch tausend andere Fragen, auf die wir erst mal keine Antwort haben. Michael sucht sie. Und auf der Suche nach Antworten lernt er in »Die Frage« besondere Menschen kennen, die ihn überraschen, an denen er verzweifelt oder die er vielleicht bewundert. Über den Macher Michael hört nie auf zu fragen. Er sucht Antworten bei den Menschen, die direkt betroffen sind - weil er keine oberflächlichen Standard-Antworten mag.",
        "title": "Die Frage",
        "publicationDate": "2016-09-30T22:00:00.000+0000",
        "importDate": "2019-04-03T11:31:22.025+0000",
        "alias": "die-frage-828",
        "updateDate": "2019-04-03T11:31:20.000+0000",
        "imageUrlOrigin": "https://localhost:8589/api/v4.0/thumbnails/5ca4998d2e2d560001e5ce9f",
        "imageUrlLandscape": "https://localhost:8589/api/v4.0/thumbnails/5ca4998d2e2d560001e5cea1",
        "imageUrlSquare": "https://localhost:8589/api/v4.0/thumbnails/5ca4998d2e2d560001e5cea7",
        "imageUrlPortrait": "https://localhost:8589/api/v4.0/thumbnails/5ca4998d2e2d560001e5cea5",
        "entityId": 828
      },
      {
        "creationDate": "2017-05-23T14:02:20.000+0000",
        "linkModels": [
          {
            "link": "https://www.youtube.com/channel/UC6Nh0xrtXJfNGucGtVrqjHw",
            "linkType": "youtubeLink"
          }
        ],
        "shortDescription": "Fiesling Marc stellt den Hosts Ari und Meini absurde Aufgaben. Scheitern wird bestraft, Gewinner dürfen sich rächen. Drehbuch und Fakes sind tabu.",
        "type": "format",
        "description": "„Das schaffst du nie!“ ist Challenge pur! Redakteur Marc stellt die zwei Hosts Ariane und Sebastian immer abwechselnd vor eine fiese Aufgabe. Ein Flugzeug landen, ohne Pilot zu sein. Eine Nadel im Heuhaufen finden. Jemandem ein Tattoo stechen – obwohl sie das noch nie gemacht haben. Oder einen Bullen absamen. Schaffen es die Hosts, dürfen sie Marc bestrafen. Schaffen sie es nicht, müssen sie neben der Schmach der Niederlage auch noch eine Bestrafung ertragen.",
        "title": "Das schaffst du nie!",
        "publicationDate": "2017-05-19T22:00:00.000+0000",
        "importDate": "2019-04-18T08:51:23.374+0000",
        "alias": "das-schaffst-du-nie-1423",
        "updateDate": "2019-04-03T11:30:48.000+0000",
        "entityGroup": 1,
        "imageUrlOrigin": "https://localhost:8589/api/v4.0/thumbnails/5ca499702e2d560001e5ce96",
        "imageUrlLandscape": "https://localhost:8589/api/v4.0/thumbnails/5ca499702e2d560001e5ce94",
        "imageUrlSquare": "https://localhost:8589/api/v4.0/thumbnails/5ca499702e2d560001e5ce9b",
        "imageUrlPortrait": "https://localhost:8589/api/v4.0/thumbnails/5ca499702e2d560001e5ce99",
        "entityId": 1423
      },
      {
        "creationDate": "2016-09-24T10:45:37.000+0000",
        "linkModels": [
          {
            "link": "https://www.snapchat.com/add/iam.serafina",
            "linkType": "snapchatLink"
          },
          {
            "link": "https://www.instagram.com/iam.serafina",
            "linkType": "instagramLink"
          },
          {
            "link": "https://www.youtube.com/c/iamserafina",
            "linkType": "youtubeLink"
          }
        ],
        "shortDescription": "Snapchat-Serie über Liebe, Freundschaft und Familie. In ihrem Videotagebuch teilt Serafina ihr Leben mit der Community.",
        "type": "format",
        "description": "iam.serafina ist die erste Live-Serie auf Snapchat und Instagram. Die 21 Jährige Serafina träumt davon, irgendwas mit Mode zu machen. Auf ihrem Weg dahin teilt sie ihr komplettes Leben, ihre Gefühle und ihre Gedanken mit ihren Followern – ohne Kompromisse. Serafina geht durch die großen und kleinen Ups and Downs, die zum Erwachsenwerden dazu gehören, auf der Suche nach Antworten auf die alles entscheidende Frage: Wer bin ich und wo ist eigentlich mein Platz im Leben?",
        "title": "iam.serafina",
        "publicationDate": "2016-09-30T22:00:00.000+0000",
        "importDate": "2019-03-29T11:39:17.720+0000",
        "alias": "iamserafina-898",
        "updateDate": "2019-03-29T11:39:16.000+0000",
        "imageUrlOrigin": "https://localhost:8589/api/v4.0/thumbnails/5c9e03eaab26d50001ecc6ff",
        "imageUrlLandscape": "https://localhost:8589/api/v4.0/thumbnails/5c9e03eaab26d50001ecc701",
        "imageUrlSquare": "https://localhost:8589/api/v4.0/thumbnails/5c9e03eaab26d50001ecc6fa",
        "imageUrlPortrait": "https://localhost:8589/api/v4.0/thumbnails/5c9e03eaab26d50001ecc6fc",
        "entityId": 898
      },
      {
        "creationDate": "2019-03-18T14:10:04.000+0000",
        "shortDescription": "Sonny Loops, Simon Will und Kiko begrüßen bei vibes. wöchentlich Stargäste und bringen Teenagern die aktuellsten Celebrity- & Lifestyle-News.",
        "type": "format",
        "description": "Mit dem YouTube-Kanal vibes. Hugs & Hypes schaffen wir einen Wohlfühlraum für die Generation Z, in dem sich unsere Community aufgehoben und ernstgenommen fühlt. \r\n\r\nIn 2 wöchentlichen Formaten berichten Sonny Loops, Simon Will & Jessabelle Kiko auf ihre Art von den wichtigsten Celebrity- & Lifestyle-Themen der letzten Woche oder laden sich Gäste aus Bereichen wie Musik, Sport oder Social Media zum lockeren Abhängen ein – natürlich nicht, ohne intensiv zu quatschen und etwas gegeneinander zu spielen.\r\n\r\n\r\nIm News-Format vibes. geben unsere Hosts im Wechsel jeden Mittwoch einen 6-8-minütigen Überblick über die wichtigsten Geschehnisse in der Welt des Lifestyles und der Celebrities – national und international. Anders als andere berichten wir nicht über Gerüchte, sondern wollen tiefer in die Themen eintauchen und mit exklusiven Statements die betroffenen Leute selbst zu Wort kommen lassen. Wir setzen nicht auf schnellen Clickbait, sondern sagen, was wirklich los ist.\r\n\r\nFreitags bringen wir mit friday vibes. die Stars dann direkt hautnah zur Community nach Hause. In lockerer Atmo hängen unsere Hosts mit ihren Kollegen aus der Branche ab, spielen Spiele, treten in Challenges gegeneinander an oder führen mit ihnen einen «Pillowtalk»: Ein tiefgründiges, privates Gespräch in einer intimen Atmosphäre, welches die Stars von einer bisher unbekannten Seite zeigt.\r\n\r\nZweimal die Woche reicht nicht? vibes. Hugs & Hypes gibt’s auch täglich auf Instagram. Im Feed liefern wir unserer Community die aktuellsten News schnell und direkt auf’s Smartphone! In den Storys finden sich hauptsächlich der Wahnsinn des Redaktionsalltags und Behind the Scenes von den Drehs – und man kommt von dort easy per Swipe Up direkt zu vibes. auf YouTube.",
        "title": "Vibes - Hugs & Hypes",
        "publicationDate": "2019-03-29T14:30:00.000+0000",
        "importDate": "2019-04-18T08:52:36.627+0000",
        "alias": "vibes-hugs-hypes-12027",
        "updateDate": "2019-03-29T11:30:35.000+0000",
        "entityGroup": 5,
        "imageUrlOrigin": "https://localhost:8589/api/v4.0/thumbnails/5c9e0319ab26d50001ecc6f3",
        "imageUrlLandscape": "https://localhost:8589/api/v4.0/thumbnails/5c9e0134ab26d50001ecc69a",
        "imageUrlSquare": "https://localhost:8589/api/v4.0/thumbnails/5c9e0165ab26d50001ecc6a2",
        "imageUrlPortrait": "https://localhost:8589/api/v4.0/thumbnails/5c9e0142ab26d50001ecc69e",
        "entityId": 12027
      },
      {
        "creationDate": "2017-08-09T11:38:22.000+0000",
        "shortDescription": "Eugen Spanck, Fitnesstrainer aus Überzeugung, versucht mit seinen ungewöhnlichsten Methoden, das Leben seiner skurrilen Kunden zu verbessern. Ab dem 2. April jeden Dienstag gibt&#39;s eine neue Folge von EUGEN SPANCK!",
        "type": "series",
        "description": "Eugen Spanck, Fitnesstrainer aus Überzeugung, steht nach dem Rauswurf aus einem angesagten Fitnessstudio und der Trennung von seiner Freundin Leonie vor dem Nichts. Notgedrungen mietet er sich im vollgerümpelten Hinterzimmer der Gaststätte seines Kumpels Joris ein und beginnt dort seine skurrilen Kunden zu empfangen, die alle „keinen schwarzen Gürtel in Geilness haben“.\r\nGetrieben vom Willen, es der Welt und Leonie nochmal zu beweisen, versucht Eugen, das Leben seiner Klienten mit ungewöhnlichsten Trainingsmethoden zu verbessern und dabei niemals das „personal“ in „personal trainer“ zu vergessen.\r\nJeden Dienstag, ab dem 2. April, gibt es hier und auf Youtube ein neues Video von Eugen Spanck.",
        "title": "Eugen Spanck",
        "publicationDate": "2019-03-21T15:00:00.000+0000",
        "importDate": "2019-03-22T09:52:01.517+0000",
        "alias": "eugen-spanck-6442",
        "updateDate": "2019-03-22T09:51:59.000+0000",
        "imageUrlOrigin": "https://localhost:8589/api/v4.0/thumbnails/5c93ab0815f94e00019d85a8",
        "imageUrlLandscape": "https://localhost:8589/api/v4.0/thumbnails/5c93676b15f94e00019d83f1",
        "imageUrlSquare": "https://localhost:8589/api/v4.0/thumbnails/5c93678815f94e00019d83fb",
        "imageUrlPortrait": "https://localhost:8589/api/v4.0/thumbnails/5c93677c15f94e00019d83f6",
        "entityId": 6442
      },
      {
        "creationDate": "2019-02-25T17:21:02.000+0000",
        "shortDescription": "Nie ein Blatt vor den Mund nehmen. In einem politischen Diskurs, der oft nur schwarz und weiß erscheint, steht Franziska Schreiber für eine differenzierte und doch ganz klare Haltung.",
        "type": "format",
        "description": "In politische Debatten reingrätschen, kontrovers diskutieren, dabei polarisieren und nie ein Blatt vor den Mund nehmen. In einem politischen Diskurs, der oft nur schwarz und weiß erscheint, steht Franziska Schreiber für eine differenzierte und doch ganz klare Haltung. Mal links, mal Mitte, mal rechts. Nur, wer heutzutage politisch mitreden will, der muss sich gefühlt für eine dieser Seiten entscheiden. \r\n\r\nAber warum? Konservativere Positionen werden im heutigen politischen Diskurs direkt als etwas verwerfliches angesehen und linke Denkweisen werden schnell als verweichlicht dargestellt. Dabei kann man als junger Mensch zu verschiedensten Themen ganz unterschiedliche Haltungen beziehen. Sozialpolitisch links und wirtschaftspolitisch rechts – geht das? Muss man sich nicht für eine Seite entscheiden? Oder kann man nicht beides sein und alles kritisch hinterfragen?\r\n\r\nFranziska Schreiber macht genau das vor! Sie diskutiert und kritisiert Themen wie die „Frühsexualisierung“, „Die linke Doppelmoral“ oder „Gründe, warum die EU nervt“ und zeigt, dass man nicht nur konservativ oder nur links sein kann. In wöchentlichen Videos rund um zeitlose Themen, aber auch aktuelle politische Ereignisse hat sie immer eine Meinung und fordert ihre Community und Zuschauer immer wieder heraus! Wer lebhafte Auseinandersetzungen und strittige Themen liebt, ist hier genau richtig.",
        "title": "Franziska Schreiber",
        "publicationDate": "2019-03-14T15:00:00.000+0000",
        "importDate": "2019-04-09T13:40:14.161+0000",
        "alias": "franziska-schreiber-12018",
        "updateDate": "2019-03-19T10:08:33.000+0000",
        "imageUrlOrigin": "https://localhost:8589/api/v4.0/thumbnails/5cac8957b740d90001704138",
        "imageUrlLandscape": "https://localhost:8589/api/v4.0/thumbnails/5c8a6dc5f86641000112726a",
        "imageUrlSquare": "https://localhost:8589/api/v4.0/thumbnails/5c8a726df8664100011272d3",
        "imageUrlPortrait": "https://localhost:8589/api/v4.0/thumbnails/5caca0c1b740d9000170420c",
        "entityId": 12018
      },
      {
        "creationDate": "2019-03-12T09:47:05.000+0000",
        "shortDescription": "Alltägliche Situationen, die jeder kennt. Situationen, die jeden nerven. Da hilft Musikerin Bina nur eines: Die Flucht in die Musik.",
        "type": "format",
        "description": "Es sind die Situationen, die jeder kennt. Die alltäglichen Situationen, die einem den letzten Nerv rauben. Sei es erneut die falsche Kasse beim Einkauf. Eine Omi, die alles in Pfennig bezahlen will oder Frauenhosentaschen. Niemand versteht Frauenhosentaschen! Für Musikerin Bina gibt es da nur eine Lösung. Die Flucht in die Musik.",
        "title": "Kopfstimme",
        "publicationDate": "2019-03-18T00:00:00.000+0000",
        "importDate": "2019-04-09T09:35:05.006+0000",
        "alias": "kopfstimme-12023",
        "updateDate": "2019-03-18T22:10:04.000+0000",
        "imageUrlOrigin": "https://localhost:8589/api/v4.0/thumbnails/5c9017428179c4000135dc59",
        "imageUrlLandscape": "https://localhost:8589/api/v4.0/thumbnails/5c9017418179c4000135dc52",
        "imageUrlSquare": "https://localhost:8589/api/v4.0/thumbnails/5c9017418179c4000135dc56",
        "imageUrlPortrait": "https://localhost:8589/api/v4.0/thumbnails/5c9017418179c4000135dc4f",
        "entityId": 12023
      },
      {
        "creationDate": "2019-01-31T09:33:15.000+0000",
        "shortDescription": "Wenn von Gewalt beherrschter Gangsta-Rap auf gutbürgerliches Spießer-Leben trifft, gibt es nur zwei mögliche Szenarien: Es wird dramatisch – oder komisch.",
        "type": "series",
        "description": "Wenn von Gewalt beherrschter Gangsta-Rap auf gutbürgerliches Spießer-Leben trifft, gibt es nur zwei mögliche Szenarien: Es wird dramatisch – oder komisch.",
        "title": "Patchwork Gangsta",
        "publicationDate": "2019-03-19T00:00:00.000+0000",
        "importDate": "2019-03-19T15:22:38.104+0000",
        "alias": "patchwork-gangsta-12011",
        "updateDate": "2019-03-18T15:01:26.000+0000",
        "imageUrlOrigin": "https://localhost:8589/api/v4.0/thumbnails/5c90a9258179c4000135dcc6",
        "imageUrlLandscape": "https://localhost:8589/api/v4.0/thumbnails/5c8fb2cb8ce5cb0001d3d28b",
        "imageUrlSquare": "https://localhost:8589/api/v4.0/thumbnails/5c8fb2cb8ce5cb0001d3d290",
        "imageUrlPortrait": "https://localhost:8589/api/v4.0/thumbnails/5c8fb2cb8ce5cb0001d3d286",
        "entityId": 12011
      },
      {
        "creationDate": "2018-09-04T14:14:18.000+0000",
        "shortDescription": "funk Politik liefert täglich Zündstoff und Hintergründe zu politischen Diskussionen auf\r\nFacebook. Wir wollen zeigen: Haltung geht auch ohne Hate.",
        "type": "format",
        "description": "funk Politik ist ein Ort auf Facebook für politische Debatten ohne Hate. Er besteht aus einer\r\nSeite und einer moderierten Gruppe. Die Vision: Mitten im Wilden Westen des Feeds eine\r\nSafe Zone für konstruktiven Dialog schaffen.\r\n\r\nAuf der Facebook-Seite liefern wir täglich Zündstoff und Munition für politische\r\nDiskussionen. Dafür schöpfen wir aus dem bereits bestehenden funk-Kosmos und bereiten\r\nInhalte für unsere Community im Kontext politischer Fragestellungen neu auf. So bieten wir\r\neine Bühne für Meinungen, Einordnungen, Erklärstücke und O-Töne von Hosts und\r\nProtagonist*innen von funk. Mit eigenen Beiträgen ergänzen wir diese Inhalte durch aktuelle\r\nThemen aus dem politischen Geschehen, die Menschen zwischen 20 und 30 gerade\r\numtreiben.\r\n\r\nIn der Facebook-Gruppe „Politik unter 30: Diskutieren ohne Hate“ können unsere\r\nNutzer*innen in einer moderierten Umgebung diskutieren und selbst Themen anregen.\r\nGemeinsam mit der Community wollen wir hier tiefer in die Debatten eintauchen und\r\nnachdenken, wie Lösungen der großen und kleinen Herausforderungen in unserem Land\r\naussehen. Menschen mit vielfältigen Hintergründen und Meinungen sollen hier in einer\r\nkonstruktiven Atmosphäre neben- und gegeneinander sprechen können. Im engen\r\nAustausch mit unserer Community entwickeln wir dafür laufend Regeln, Ideen und Formate,\r\ndie gute Diskussionen am Leben halten. Moderiert wird die Gruppe von den funk Politik\r\nRedakteur*innen Sermin und Tobias. Sie stoßen Themen an, haken nach, korrigieren und\r\nsorgen dafür, dass die Stimmung fair und konstruktiv bleibt. So wollen wir zeigen: Haltung\r\ngeht auch ohne Hate.",
        "title": "funk Politik",
        "publicationDate": "2018-09-30T23:00:00.000+0000",
        "importDate": "2019-03-14T09:44:36.078+0000",
        "alias": "funk-politik-11977",
        "updateDate": "2019-03-12T15:48:55.000+0000",
        "imageUrlOrigin": "https://localhost:8589/api/v4.0/thumbnails/5c87d9b56338ba000166ac2c",
        "imageUrlLandscape": "https://localhost:8589/api/v4.0/thumbnails/5c80e69955070b0001b383cd",
        "imageUrlSquare": "https://localhost:8589/api/v4.0/thumbnails/5c87d9b56338ba000166ac32",
        "imageUrlPortrait": "https://localhost:8589/api/v4.0/thumbnails/5c87d9b56338ba000166ac28",
        "entityId": 11977
      }
   ]
  },
  "_links": {
    "self": {
      "href": "http://localhost:8589/v4.0/channels/?page=2&size=10&sort=updateDate,desc"
    },
    "next": {
      "href": "http://localhost:8589/v4.0/channels/?page=3&size=10&sort=updateDate,desc"
    }
  },
  "page": {
    "size": 10,
    "totalElements": 33,
    "totalPages": 4,
    "number": 3
  }
}