{
  "_embedded": {
    "channelDTOList": [
      {
        "creationDate": "2018-08-27T14:27:16.000+0000",
        "linkModels": [
          {
            "link": "https://www.instagram.com/stories.offiziell/?hl=en",
            "linkType": "instagramLink"
          },
          {
            "link": "https://open.spotify.com/show/5u9zkEtkAlQsk00NBrdYPL",
            "linkType": "spotifyLink"
          },
          {
            "link": "https://itunes.apple.com/de/podcast/id1436701565?l=de",
            "linkType": "itunesLink"
          },
          {
            "link": "https://rss.nexx.cloud/ZNH3Q3M0JPRR4ZT",
            "linkType": "rssLink"
          }
        ],
        "shortDescription": "Stories. ist euer literarisches Sprachrohr. Ihr lernt nicht nur neue Bücher kennen, sondern auch die Autor*innen dahinter. Als Podcast und auf Instagram wird Literatur erlebbar.",
        "type": "format",
        "description": "<p>In Stories. dreht sich alles um Geschichten. Wöchentlich empfängt Mona Ameziane Autoren zur einstündigen Lesung und spricht mit ihnen über ihr neustes Buch.Unter den Autoren: Stars und aufstrebende Talente. Darunter Popkulturgrößen wie Heinz Strunk, Jan Böhmermann, Katrin Bauerfeind, Benjamin von Stuckrad-Barre und Newcomer wie Felix Lobrecht. Im „Stories.“-Podcast für funk gibt es für die User wöchentlich „Die Lesung“ inklusive Autoren-Talk und in einem zweiten Teil „Den Nerdtalk“, die ganz persönliche Nachbetrachtung der Lesung von Moderatorin Mona Ameziane. Dabei stets an ihrer Seite: Buchnerd und Freund Philipp Kressmann, der einen ganz eigenen Blick auf das Gehörte hat.Sie treffen sich zuhause an Monas Küchentisch. Philipp hat die Lesung verfolgt und sich Gedanken gemacht. Über den/die Autorin, das Interview und natürlich das Buch. Mona fragt ihn zu Beginn immer nach seiner Meinung, die er ungefiltert raushaut. Mal wird ein Gast gedisst, mal gefeiert. Bei einem starken Thema führen Philipp und Mona auch mal eine Grundsatzdebatte, die Literatur tritt dann vermeintlich in den Hintergrund. Letztendlich machen die beiden auf diesem Weg aber Literatur erlebbar. Dabei kommen Buch- und Autorentipps natürlich nicht zu kurz. Gerne beziehen sich die beiden auf schon Gelesenes, Vergleichbares oder Erlebtes. Bleiben dabei aber meistens verständlich und nur ein bisschen freaky.Der Podcast wird mit einem Instagram-Account begleitet. Auf diesem werden weitere Bücher vorgestellt und bewertet. Wir bieten popkulturelle Orientierung: Wir sagen euch, welche Bücher lesenswert sind. Die Follower können aktiv mitgestalten. Sie können sich von Mona Bücher wünschen, die sie liest und bespricht, aber auch in den Stories abstimmen und Fragen stellen.Stories ist nicht staubtrocken, sondern locker und entspannt.Wir machen Literatur erlebbar: Lesungen mit Autoren, die locker und entspannt sind. Wir stellen euch die Stars der Literaturszene vor, und zeigen sie von einer einzigartigen Seite. Autoren werden greifbar.</p>",
        "title": "Stories. Der Buch-Podcast",
        "publicationDate": "2018-09-19T12:00:00.000+0000",
        "importDate": "2019-03-07T09:39:59.498+0000",
        "alias": "stories-der-buchpodcast-11968",
        "updateDate": "2018-10-09T10:16:00.000+0000",
        "imageUrlOrigin": "https://localhost:8589/api/v4.0/thumbnails/5c80e6ef55070b0001b387cc",
        "imageUrlLandscape": "https://localhost:8589/api/v4.0/thumbnails/5c80e6ef55070b0001b387ca",
        "imageUrlSquare": "https://localhost:8589/api/v4.0/thumbnails/5c80e6f055070b0001b387d4",
        "imageUrlPortrait": "https://localhost:8589/api/v4.0/thumbnails/5c80e6ef55070b0001b387d0",
        "entityId": 11968
      },
      {
        "creationDate": "2018-07-03T12:34:58.000+0000",
        "linkModels": [
          {
            "link": "https://www.instagram.com/projekthorizont/?hl=de",
            "linkType": "instagramLink"
          },
          {
            "link": "https://www.youtube.com/channel/UClWr3kq6CtCstz5PlqEDhiw/featured",
            "linkType": "youtubeLink"
          }
        ],
        "shortDescription": "Mit dem Ballast ihrer Vergangenheit im Gepäck begeben sich sechs Menschen auf die Reise ihres Lebens: die Besteigung des Kilimandscharo.",
        "type": "series",
        "description": "Das Webformat „Projekt:Horizont“ dokumentiert die Reise von Sarah, Can, Nancy, Amina, Matthias und Ingo, die sich einer gemeinsamen Herausforderung stellen: der Besteigung des Kilimandscharos, des höchsten Bergs Afrikas. Auch wenn sie unterschiedlicher nicht sein könnten, haben sie eine Gemeinsamkeit: eine aufreibende Vergangenheit. Während Nancy seit Kindesalter mit einer körperlichen Behinderung kämpft, leidet Can schwer unter seinem geringen Selbstwertgefühl. Matthias wiederum musste früh erfahren, wie es ist, als Homosexueller unter Gleichaltrigen nicht akzeptiert zu werden. Auch Amina wurde in ihrer Jugend gemobbt und musste schon früh auf eigenen Beinen stehen. Ingo bringt eine kriminelle Vergangenheit mit auf die Reise: Gerade aus der JVA entlassen geht es für ihn direkt nach Afrika. Die jüngste Teilnehmerin ist Sarah. Obwohl sie in einer funktionierenden Familie und guten Verhältnissen aufwuchs, trieb es sie auf die schiefe Bahn. \r\n \r\nAußerhalb ihrer Komfortzonen und isoliert von Familie und Freunden erlebt jeder einzelne, was es bedeutet, über sich hinauszuwachsen – denn der Berg verlangt ihnen körperlich und mental alles ab. Schaffen die Teilnehmer es, über ihre Grenzen hinaus zu gehen und sich bis ganz nach oben zu kämpfen? Was macht die Höhe mit ihnen? Wie erleben sie die fremde Kultur, wie begegnen sie den einheimischen Trägern, die sie auf Schritt und Tritt begleiten, wie meistern sie die verschiedenen Stationen und Herausforderungen auf der Machame-Route bis zum Gipfel auf 5.895 Meter? \r\nDer Berg ist bekannt dafür, Menschen zu verändern und genau das will jeder Einzelne erreichen: Für jeden von ihnen geht es um eine Entwicklung, um einen fundamentalen Lebenswandel, den diese Reise in ihnen auslösen kann. Geleitet wird das Team von Karl Nesseler, der von ansässigen Guides unterstützt wird. An deren Seite sind außerdem Gerd-Jan Niessen, Physiotherapeut und die Sozialarbeiterin Valerie Kurnatowski, die bei den emotionalen Herausforderungen zur Seite steht. Valerie führt hauptsächlich die Interviews am Berg und ermöglicht es jedem Teilnehmer durch gezielte Fragestellung, mit unangenehmen oder sensiblen Themen konfrontiert zu werden.",
        "title": "Projekt:Horizont",
        "publicationDate": "2018-09-20T14:00:00.000+0000",
        "importDate": "2019-03-07T09:39:13.860+0000",
        "alias": "projekthorizont-11945",
        "updateDate": "2018-10-08T14:28:44.000+0000",
        "imageUrlOrigin": "https://localhost:8589/api/v4.0/thumbnails/5c80e6c455070b0001b3870f",
        "imageUrlLandscape": "https://localhost:8589/api/v4.0/thumbnails/5c80e6c155070b0001b3870d",
        "imageUrlSquare": "https://localhost:8589/api/v4.0/thumbnails/5c80e6db55070b0001b38716",
        "imageUrlPortrait": "https://localhost:8589/api/v4.0/thumbnails/5c80e6ce55070b0001b38712",
        "entityId": 11945
      },
      {
        "creationDate": "2017-03-16T11:50:07.000+0000",
        "linkModels": [
          {
            "link": "https://www.instagram.com/superpolypsycholum",
            "linkType": "instagramLink"
          },
          {
            "link": "https://twitter.com/Superpolypsycho",
            "linkType": "twitterLink"
          },
          {
            "link": "https://www.facebook.com/Superpolypsycholum",
            "linkType": "facebookLink"
          },
          {
            "link": "https://www.youtube.com/channel/UCECLBKGkpkLxVc0RCXdq9QQ",
            "linkType": "youtubeLink"
          }
        ],
        "shortDescription": "Animationsserie über den Alltag im Irrenhaus: mit Dimensionslöchern, Invasionen, Mutterliebe und einem Nacktmull-Schäferhund-Mischling.",
        "type": "series",
        "title": "SUPERPOLYPSYCHOLUM",
        "publicationDate": "2016-09-30T22:00:00.000+0000",
        "importDate": "2019-03-07T09:40:02.064+0000",
        "alias": "superpolypsycholum-1101",
        "updateDate": "2018-09-28T12:11:58.000+0000",
        "imageUrlOrigin": "https://localhost:8589/api/v4.0/thumbnails/5c80e6f255070b0001b38808",
        "imageUrlLandscape": "https://localhost:8589/api/v4.0/thumbnails/5c80e6f255070b0001b38801",
        "imageUrlSquare": "https://localhost:8589/api/v4.0/thumbnails/5c80e6f255070b0001b38803",
        "imageUrlPortrait": "https://localhost:8589/api/v4.0/thumbnails/5c80e6f255070b0001b38806",
        "entityId": 1101
      }
    ]
  },
  "_links": {
    "self": {
      "href": "http://localhost:8589/v4.0/channels/?page=4&size=10&sort=updateDate,desc"
    },
    "prev": {
      "href": "http://localhost:8589/v4.0/channels/?page=3&size=10&sort=updateDate,desc"
    }
  },
  "page": {
    "size": 10,
    "totalElements": 33,
    "totalPages": 4,
    "number": 4
  }
}