{
   "meta":{
      "videos":{
         "page":23,
         "limit":10,
         "pages":23,
         "totalCount":221,
         "href":"https://api.arte.tv/api/opa/v3/videos?availableScreens=desktop&imageSize=940x530%2C625x224%2C1920x1080%2C720x406%2C400x225&page=23&videoLibrary=true&subcategory.code=ACC&language=de&limit=10&platform=ARTE_NEXT&sort=-videoRightsBegin",
         "links":{
            "first":{
               "href":"https://api.arte.tv/api/opa/v3/videos?availableScreens=desktop&imageSize=940x530%2C625x224%2C1920x1080%2C720x406%2C400x225&page=1&videoLibrary=true&subcategory.code=ACC&language=de&limit=10&platform=ARTE_NEXT&sort=-videoRightsBegin"
            },
            "previous":{
               "href":"https://api.arte.tv/api/opa/v3/videos?availableScreens=desktop&imageSize=940x530%2C625x224%2C1920x1080%2C720x406%2C400x225&page=22&videoLibrary=true&subcategory.code=ACC&language=de&limit=10&platform=ARTE_NEXT&sort=-videoRightsBegin"
            }
         }
      }
   },
   "videos":[
      {
         "id":"072401-011-A_SHOW_ARTE_NEXT_DE_de",
         "duration":15,
         "title":"Blow up",
         "subtitle":"Glatzköpfe im Film",
         "url":"/de/videos/072401-011-A/blow-up",
         "kind":"SHOW",
         "images":[
            {
               "name":"072401-011-A_1956884.jpg",
               "extension":"jpg",
               "caption":"Marlon Brando",
               "url":"https://static-cdn.arte.tv/resize/WpCa9QZUYfREY46B5Muh4uWcLC8=/940x530/smart/filters:strip_icc()/apios/Img_data/27/072401-011-A_1956884.jpg",
               "imageId":"1956884",
               "programId":"072401-011-A",
               "language":"de",
               "copyright":"",
               "creationDate":"2017-01-31T16:16:56Z",
               "lastModified":"2017-05-31T00:19:48Z",
               "width":940,
               "height":530,
               "keyframe":false,
               "alternateResolutions":[
                  {
                     "url":"https://static-cdn.arte.tv/resize/WpCa9QZUYfREY46B5Muh4uWcLC8=/940x530/smart/filters:strip_icc()/apios/Img_data/27/072401-011-A_1956884.jpg",
                     "width":940,
                     "height":530,
                     "imageSize":"940x530"
                  },
                  {
                     "url":"https://static-cdn.arte.tv/resize/h2DSVaTmtKyOTc5tIYfLICmYBgE=/625x224/smart/filters:strip_icc()/apios/Img_data/27/072401-011-A_1956884.jpg",
                     "width":625,
                     "height":224,
                     "imageSize":"625x224"
                  },
                  {
                     "url":"https://static-cdn.arte.tv/resize/T_wfWrUwR5fe2qgcuCNhujUqFlQ=/1920x1080/smart/filters:strip_icc()/apios/Img_data/27/072401-011-A_1956884.jpg",
                     "width":1920,
                     "height":1080,
                     "imageSize":"1920x1080"
                  },
                  {
                     "url":"https://static-cdn.arte.tv/resize/WKw8rSnA0na4OWaBZJtpam3vDLg=/720x406/smart/filters:strip_icc()/apios/Img_data/27/072401-011-A_1956884.jpg",
                     "width":720,
                     "height":406,
                     "imageSize":"720x406"
                  },
                  {
                     "url":"https://static-cdn.arte.tv/resize/6dKTY4-vTIPRIUs8m948RgOb7u4=/400x225/smart/filters:strip_icc()/apios/Img_data/27/072401-011-A_1956884.jpg",
                     "width":400,
                     "height":225,
                     "imageSize":"400x225"
                  }
               ],
               "type":"DEFAULT",
               "format":"landscape"
            }
         ]
      }
   ]
}