{
   "meta":{
      "videos":{
         "page":1,
         "limit":10,
         "pages":21,
         "totalCount":206,
         "href":"https://api.arte.tv/api/opa/v3/videos?page=1&availableScreens=desktop&videoLibrary=true&limit=10&imageSize=940x530%2C625x224%2C1920x1080%2C720x406%2C400x225&subcategory.code=ACC&sort=-videoRightsBegin&platform=ARTE_NEXT&language=de",
         "links":{
            "first":{
               "href":"https://api.arte.tv/api/opa/v3/videos?page=1&availableScreens=desktop&videoLibrary=true&limit=10&imageSize=940x530%2C625x224%2C1920x1080%2C720x406%2C400x225&subcategory.code=ACC&sort=-videoRightsBegin&platform=ARTE_NEXT&language=de"
            },
            "next":{
               "href":"https://api.arte.tv/api/opa/v3/videos?page=2&availableScreens=desktop&videoLibrary=true&limit=10&imageSize=940x530%2C625x224%2C1920x1080%2C720x406%2C400x225&subcategory.code=ACC&sort=-videoRightsBegin&platform=ARTE_NEXT&language=de"
            }
         }
      }
   },
   "videos":[
      {
         "id":"072401-052-A_SHOW_ARTE_NEXT_DE_de",
         "duration":8,
         "title":"Blow up - Haben Sie \"Electra\" in 70 mm und 3D gesehen?",
         "subtitle":null,
         "url":"/de/videos/072401-052-A/blow-up-haben-sie-electra-in-70-mm-und-3d-gesehen",
         "kind":"SHOW",
         "images":[
            {
               "name":"072401-052-A_2094130.jpg",
               "extension":"jpg",
               "caption":"\"Electra\"",
               "url":"https://static-cdn.arte.tv/resize/H1n5_wvl8TACFbREViUJuVhVs3s=/940x530/smart/apios/Img_data/10/072401-052-A_2094130.jpg",
               "imageId":"2094130",
               "programId":"072401-052-A",
               "language":"de",
               "copyright":"",
               "creationDate":"2017-06-02T16:37:13Z",
               "lastModified":"2017-06-08T13:25:55Z",
               "width":940,
               "height":530,
               "keyframe":false,
               "alternateResolutions":[
                  {
                     "url":"https://static-cdn.arte.tv/resize/H1n5_wvl8TACFbREViUJuVhVs3s=/940x530/smart/apios/Img_data/10/072401-052-A_2094130.jpg",
                     "width":940,
                     "height":530,
                     "imageSize":"940x530"
                  },
                  {
                     "url":"https://static-cdn.arte.tv/resize/m2EWUArhuDOP_ABykQvEomYkl-o=/625x224/smart/apios/Img_data/10/072401-052-A_2094130.jpg",
                     "width":625,
                     "height":224,
                     "imageSize":"625x224"
                  },
                  {
                     "url":"https://static-cdn.arte.tv/resize/gITf84mj-1BjjGdEXBh-cxUiGWs=/1920x1080/smart/apios/Img_data/10/072401-052-A_2094130.jpg",
                     "width":1920,
                     "height":1080,
                     "imageSize":"1920x1080"
                  },
                  {
                     "url":"https://static-cdn.arte.tv/resize/qiwrCd4YY72KUZs-M6O59rSsyVU=/720x406/smart/apios/Img_data/10/072401-052-A_2094130.jpg",
                     "width":720,
                     "height":406,
                     "imageSize":"720x406"
                  },
                  {
                     "url":"https://static-cdn.arte.tv/resize/CgV49QUzkj2vuxyC7W9YDehtt_8=/400x225/smart/apios/Img_data/10/072401-052-A_2094130.jpg",
                     "width":400,
                     "height":225,
                     "imageSize":"400x225"
                  }
               ],
               "type":"DEFAULT",
               "format":"landscape"
            }
         ]
      },
      {
         "id":"072401-050-A_SHOW_ARTE_NEXT_DE_de",
         "duration":19,
         "title":"Blow up",
         "subtitle":"Statuen im Film",
         "url":"/de/videos/072401-050-A/blow-up",
         "kind":"SHOW",
         "images":[
            {
               "name":"072401-050-A_2093987.jpg",
               "extension":"jpg",
               "caption":"\"Die Verachtung\" von Jean-Luc Godard ",
               "url":"https://static-cdn.arte.tv/resize/71cnmi8DGR-s9cUSGIGqB6xmHaA=/940x530/smart/apios/Img_data/27/072401-050-A_2093987.jpg",
               "imageId":"2093987",
               "programId":"072401-050-A",
               "language":"de",
               "copyright":"",
               "creationDate":"2017-06-02T16:52:28Z",
               "lastModified":"2017-06-08T13:24:10Z",
               "width":940,
               "height":530,
               "keyframe":false,
               "alternateResolutions":[
                  {
                     "url":"https://static-cdn.arte.tv/resize/71cnmi8DGR-s9cUSGIGqB6xmHaA=/940x530/smart/apios/Img_data/27/072401-050-A_2093987.jpg",
                     "width":940,
                     "height":530,
                     "imageSize":"940x530"
                  },
                  {
                     "url":"https://static-cdn.arte.tv/resize/ereFzgXkELUODTOE35r3U1v5L_4=/625x224/smart/apios/Img_data/27/072401-050-A_2093987.jpg",
                     "width":625,
                     "height":224,
                     "imageSize":"625x224"
                  },
                  {
                     "url":"https://static-cdn.arte.tv/resize/LJRFa5iXMsYrojWxegPbVzlbfM0=/1920x1080/smart/apios/Img_data/27/072401-050-A_2093987.jpg",
                     "width":1920,
                     "height":1080,
                     "imageSize":"1920x1080"
                  },
                  {
                     "url":"https://static-cdn.arte.tv/resize/Wy4Mg8aMr6zQZrqAZMyOMxmmxkU=/720x406/smart/apios/Img_data/27/072401-050-A_2093987.jpg",
                     "width":720,
                     "height":406,
                     "imageSize":"720x406"
                  },
                  {
                     "url":"https://static-cdn.arte.tv/resize/3oOAZQG5AGQeihlSl86Gdi0Ai4k=/400x225/smart/apios/Img_data/27/072401-050-A_2093987.jpg",
                     "width":400,
                     "height":225,
                     "imageSize":"400x225"
                  }
               ],
               "type":"DEFAULT",
               "format":"landscape"
            }
         ]
      },
      {
         "id":"072401-051-A_SHOW_ARTE_NEXT_DE_de",
         "duration":8,
         "title":"Blow up",
         "subtitle":"Hong Sang-soo aus der Sicht von Sébastien Betbeder",
         "url":"/de/videos/072401-051-A/blow-up",
         "kind":"SHOW",
         "images":[
            {
               "name":"072401-051-A_2095214.jpg",
               "extension":"jpg",
               "caption":"Hong sang-soo : \"Right Now, Wrong Then\" ",
               "url":"https://static-cdn.arte.tv/resize/quj3JC2CKIR0BfdpleWl7GLrUR0=/940x530/smart/apios/Img_data/13/072401-051-A_2095214.jpg",
               "imageId":"2095214",
               "programId":"072401-051-A",
               "language":"de",
               "copyright":"",
               "creationDate":"2017-06-06T11:06:02Z",
               "lastModified":"2017-06-08T13:25:20Z",
               "width":940,
               "height":530,
               "keyframe":false,
               "alternateResolutions":[
                  {
                     "url":"https://static-cdn.arte.tv/resize/quj3JC2CKIR0BfdpleWl7GLrUR0=/940x530/smart/apios/Img_data/13/072401-051-A_2095214.jpg",
                     "width":940,
                     "height":530,
                     "imageSize":"940x530"
                  },
                  {
                     "url":"https://static-cdn.arte.tv/resize/VjJGdB5XYtcLkiuxFmNrvnEO-oo=/625x224/smart/apios/Img_data/13/072401-051-A_2095214.jpg",
                     "width":625,
                     "height":224,
                     "imageSize":"625x224"
                  },
                  {
                     "url":"https://static-cdn.arte.tv/resize/ETwF_8KG7KEtIv5U4MwvidIQbJc=/1920x1080/smart/apios/Img_data/13/072401-051-A_2095214.jpg",
                     "width":1920,
                     "height":1080,
                     "imageSize":"1920x1080"
                  },
                  {
                     "url":"https://static-cdn.arte.tv/resize/iEKmDKbhKG7eYRSrWShqF4oMPfI=/720x406/smart/apios/Img_data/13/072401-051-A_2095214.jpg",
                     "width":720,
                     "height":406,
                     "imageSize":"720x406"
                  },
                  {
                     "url":"https://static-cdn.arte.tv/resize/_gFKwyQXszHM1KRY9OrCPrjgWco=/400x225/smart/apios/Img_data/13/072401-051-A_2095214.jpg",
                     "width":400,
                     "height":225,
                     "imageSize":"400x225"
                  }
               ],
               "type":"DEFAULT",
               "format":"landscape"
            }
         ]
      },
      {
         "id":"045365-000-A_SHOW_ARTE_NEXT_DE_de",
         "duration":78,
         "title":"Staatsdiener",
         "subtitle":null,
         "url":"/de/videos/045365-000-A/staatsdiener",
         "kind":"SHOW",
         "images":[
            {
               "name":"045365-000-A_2013205.jpg",
               "extension":"jpg",
               "caption":"Schießübung",
               "url":"https://static-cdn.arte.tv/resize/HI9y5Mwi913zFyxmUBzNbsuT8Jc=/940x530/smart/apios/Img_data/6/045365-000-A_2013205.jpg",
               "imageId":"2013205",
               "programId":"045365-000-A",
               "language":"de",
               "copyright":"© ZDF/Alexander Gheorghiu",
               "creationDate":"2017-04-19T17:33:41Z",
               "lastModified":"2017-06-06T04:25:24Z",
               "width":940,
               "height":530,
               "keyframe":false,
               "alternateResolutions":[
                  {
                     "url":"https://static-cdn.arte.tv/resize/HI9y5Mwi913zFyxmUBzNbsuT8Jc=/940x530/smart/apios/Img_data/6/045365-000-A_2013205.jpg",
                     "width":940,
                     "height":530,
                     "imageSize":"940x530"
                  },
                  {
                     "url":"https://static-cdn.arte.tv/resize/-8-3uQDhY8jW2yohdrW4GwXuXFo=/625x224/smart/apios/Img_data/6/045365-000-A_2013205.jpg",
                     "width":625,
                     "height":224,
                     "imageSize":"625x224"
                  },
                  {
                     "url":"https://static-cdn.arte.tv/resize/Ee14P00gfBiYvvdjnJNzahAVoSc=/1920x1080/smart/apios/Img_data/6/045365-000-A_2013205.jpg",
                     "width":1920,
                     "height":1080,
                     "imageSize":"1920x1080"
                  },
                  {
                     "url":"https://static-cdn.arte.tv/resize/7Z4TEpNMVKGe4S_A29i8KAQXLBw=/720x406/smart/apios/Img_data/6/045365-000-A_2013205.jpg",
                     "width":720,
                     "height":406,
                     "imageSize":"720x406"
                  },
                  {
                     "url":"https://static-cdn.arte.tv/resize/Z1qpSvMpqx_mPfQBPcTsGJVq4MI=/400x225/smart/apios/Img_data/6/045365-000-A_2013205.jpg",
                     "width":400,
                     "height":225,
                     "imageSize":"400x225"
                  }
               ],
               "type":"DEFAULT",
               "format":"landscape"
            }
         ]
      },
      {
         "id":"069055-000-A_SHOW_ARTE_NEXT_DE_de",
         "duration":85,
         "title":"90 Jahre sind kein Alter",
         "subtitle":null,
         "url":"/de/videos/069055-000-A/90-jahre-sind-kein-alter",
         "kind":"SHOW",
         "images":[
            {
               "name":"069055-000-A_2026051.jpg",
               "extension":"jpg",
               "caption":"Während der Dreharbeiten kommt in der 92-jährigen Blanche die junge Frau, die sie einst war, noch einmal zum Vorschein  sie verliebt sich in Thierry, den Tänzer und Choreographen.",
               "url":"https://static-cdn.arte.tv/resize/L1scg_FWzKUsAgevugc2etUY4to=/940x530/smart/apios/Img_data/11/069055-000-A_2026051.jpg",
               "imageId":"2026051",
               "programId":"069055-000-A",
               "language":"de",
               "copyright":"© Agat Films & Cie",
               "creationDate":"2017-04-19T17:30:11Z",
               "lastModified":"2017-06-08T17:32:43Z",
               "width":940,
               "height":530,
               "keyframe":false,
               "alternateResolutions":[
                  {
                     "url":"https://static-cdn.arte.tv/resize/L1scg_FWzKUsAgevugc2etUY4to=/940x530/smart/apios/Img_data/11/069055-000-A_2026051.jpg",
                     "width":940,
                     "height":530,
                     "imageSize":"940x530"
                  },
                  {
                     "url":"https://static-cdn.arte.tv/resize/16l6SWp5uU_nZHRZNt2eG35-SHU=/625x224/smart/apios/Img_data/11/069055-000-A_2026051.jpg",
                     "width":625,
                     "height":224,
                     "imageSize":"625x224"
                  },
                  {
                     "url":"https://static-cdn.arte.tv/resize/Ojf2AqGj-uf1d72WdxQ3XUBoQLA=/1920x1080/smart/apios/Img_data/11/069055-000-A_2026051.jpg",
                     "width":1920,
                     "height":1080,
                     "imageSize":"1920x1080"
                  },
                  {
                     "url":"https://static-cdn.arte.tv/resize/patHzCepwL-Bn_YrhY-PVIAfNVw=/720x406/smart/apios/Img_data/11/069055-000-A_2026051.jpg",
                     "width":720,
                     "height":406,
                     "imageSize":"720x406"
                  },
                  {
                     "url":"https://static-cdn.arte.tv/resize/0q1DwGEIhTzKGtatwvOAVBExvcE=/400x225/smart/apios/Img_data/11/069055-000-A_2026051.jpg",
                     "width":400,
                     "height":225,
                     "imageSize":"400x225"
                  }
               ],
               "type":"DEFAULT",
               "format":"landscape"
            }
         ]
      },
      {
         "id":"062246-000-A_SHOW_ARTE_NEXT_DE_de",
         "duration":91,
         "title":"Monsieur Mayonnaise",
         "subtitle":null,
         "url":"/de/videos/062246-000-A/monsieur-mayonnaise",
         "kind":"SHOW",
         "images":[
            {
               "name":"062246-000-A_2003271.jpg",
               "extension":"jpg",
               "caption":"Philippe mit Gisèle Fournier in dem Dorf, wo ihre Mutter sich im Zweiten Weltkrieg versteckt hatte",
               "url":"https://static-cdn.arte.tv/resize/WvR3Zk7GO-tAf9KG0c41J7hxVsA=/940x530/smart/apios/Img_data/5/062246-000-A_2003271.jpg",
               "imageId":"2003271",
               "programId":"062246-000-A",
               "language":"de",
               "copyright":"© ZDF/Jenni Meaney",
               "creationDate":"2017-04-19T17:29:36Z",
               "lastModified":"2017-06-06T14:23:54Z",
               "width":940,
               "height":530,
               "keyframe":false,
               "alternateResolutions":[
                  {
                     "url":"https://static-cdn.arte.tv/resize/WvR3Zk7GO-tAf9KG0c41J7hxVsA=/940x530/smart/apios/Img_data/5/062246-000-A_2003271.jpg",
                     "width":940,
                     "height":530,
                     "imageSize":"940x530"
                  },
                  {
                     "url":"https://static-cdn.arte.tv/resize/9e5lRROSWaZV3iURXQQTdgzbLgk=/625x224/smart/apios/Img_data/5/062246-000-A_2003271.jpg",
                     "width":625,
                     "height":224,
                     "imageSize":"625x224"
                  },
                  {
                     "url":"https://static-cdn.arte.tv/resize/r4UV3Q_IX3IKHodmZp3oKAEuNgk=/1920x1080/smart/apios/Img_data/5/062246-000-A_2003271.jpg",
                     "width":1920,
                     "height":1080,
                     "imageSize":"1920x1080"
                  },
                  {
                     "url":"https://static-cdn.arte.tv/resize/HekDgLr6eS4YF_a-FSuEVYaMSaU=/720x406/smart/apios/Img_data/5/062246-000-A_2003271.jpg",
                     "width":720,
                     "height":406,
                     "imageSize":"720x406"
                  },
                  {
                     "url":"https://static-cdn.arte.tv/resize/vcx-K90_KK2SmULTx0DuSa_6p24=/400x225/smart/apios/Img_data/5/062246-000-A_2003271.jpg",
                     "width":400,
                     "height":225,
                     "imageSize":"400x225"
                  }
               ],
               "type":"DEFAULT",
               "format":"landscape"
            }
         ]
      },
      {
         "id":"053299-138-A_SHOW_ARTE_NEXT_DE_de",
         "duration":3,
         "title":"Die Kinostarts der Woche",
         "subtitle":null,
         "url":"/de/videos/053299-138-A/die-kinostarts-der-woche",
         "kind":"SHOW",
         "images":[
            {
               "name":"053299-138-A_1840953.jpg",
               "extension":"jpg",
               "caption":"Film ab!",
               "url":"https://static-cdn.arte.tv/resize/KUNGdJuDsDYsjFu_Qq7_eIyYmwU=/940x530/smart/apios/Img_data/10/053299-138-A_1840953.jpg",
               "imageId":"1840953",
               "programId":"053299-138-A",
               "language":"de",
               "copyright":"",
               "creationDate":"2016-09-21T09:11:11Z",
               "lastModified":"2017-06-06T07:30:58Z",
               "width":940,
               "height":530,
               "keyframe":false,
               "alternateResolutions":[
                  {
                     "url":"https://static-cdn.arte.tv/resize/KUNGdJuDsDYsjFu_Qq7_eIyYmwU=/940x530/smart/apios/Img_data/10/053299-138-A_1840953.jpg",
                     "width":940,
                     "height":530,
                     "imageSize":"940x530"
                  },
                  {
                     "url":"https://static-cdn.arte.tv/resize/f1lBL3YOvPQ4TPxLEMs5-isow9g=/625x224/smart/apios/Img_data/10/053299-138-A_1840953.jpg",
                     "width":625,
                     "height":224,
                     "imageSize":"625x224"
                  },
                  {
                     "url":"https://static-cdn.arte.tv/resize/-nygyKQSOz5Mpc8LGuHvZJwIWYg=/1920x1080/smart/apios/Img_data/10/053299-138-A_1840953.jpg",
                     "width":1920,
                     "height":1080,
                     "imageSize":"1920x1080"
                  },
                  {
                     "url":"https://static-cdn.arte.tv/resize/-kKmzhyBvKW0Us3DockQj6zqab4=/720x406/smart/apios/Img_data/10/053299-138-A_1840953.jpg",
                     "width":720,
                     "height":406,
                     "imageSize":"720x406"
                  },
                  {
                     "url":"https://static-cdn.arte.tv/resize/84sUJQ3E2j97Z8j3w8uFwLinW1U=/400x225/smart/apios/Img_data/10/053299-138-A_1840953.jpg",
                     "width":400,
                     "height":225,
                     "imageSize":"400x225"
                  }
               ],
               "type":"DEFAULT",
               "format":"landscape"
            }
         ]
      },
      {
         "id":"075443-026-A_SHOW_ARTE_NEXT_DE_de",
         "duration":12,
         "title":"\"La Cordillera\" - Interview mit Santiago Mitre und Ricardo Darin",
         "subtitle":null,
         "url":"/de/videos/075443-026-A/la-cordillera-interview-mit-santiago-mitre-und-ricardo-darin",
         "kind":"SHOW",
         "images":[
            {
               "name":"075443-026-A_2086901.jpg",
               "extension":"jpg",
               "caption":"\"La Cordillera\" - Rencontre avec Santiago Mitre et Ricardo Darin ",
               "url":"https://static-cdn.arte.tv/resize/RJ9YGONuLWfpMuVOQcUg9UluIRg=/940x530/smart/apios/Img_data/27/075443-026-A_2086901.jpg",
               "imageId":"2086901",
               "programId":"075443-026-A",
               "language":"de",
               "copyright":"",
               "creationDate":"2017-05-27T13:33:47Z",
               "lastModified":"2017-05-30T14:03:43Z",
               "width":940,
               "height":530,
               "keyframe":false,
               "alternateResolutions":[
                  {
                     "url":"https://static-cdn.arte.tv/resize/RJ9YGONuLWfpMuVOQcUg9UluIRg=/940x530/smart/apios/Img_data/27/075443-026-A_2086901.jpg",
                     "width":940,
                     "height":530,
                     "imageSize":"940x530"
                  },
                  {
                     "url":"https://static-cdn.arte.tv/resize/nJyf5B9UhQ7I5bdXv7__tOCjnI4=/625x224/smart/apios/Img_data/27/075443-026-A_2086901.jpg",
                     "width":625,
                     "height":224,
                     "imageSize":"625x224"
                  },
                  {
                     "url":"https://static-cdn.arte.tv/resize/0utC5aW7a9L8P__65sh69dyWsz0=/1920x1080/smart/apios/Img_data/27/075443-026-A_2086901.jpg",
                     "width":1920,
                     "height":1080,
                     "imageSize":"1920x1080"
                  },
                  {
                     "url":"https://static-cdn.arte.tv/resize/0c8p_HdHa--5PWGPfSfMg0NpEmU=/720x406/smart/apios/Img_data/27/075443-026-A_2086901.jpg",
                     "width":720,
                     "height":406,
                     "imageSize":"720x406"
                  },
                  {
                     "url":"https://static-cdn.arte.tv/resize/2M6sliKYrtpfJ6YRJ2nSB7NRj2U=/400x225/smart/apios/Img_data/27/075443-026-A_2086901.jpg",
                     "width":400,
                     "height":225,
                     "imageSize":"400x225"
                  }
               ],
               "type":"DEFAULT",
               "format":"landscape"
            }
         ]
      },
      {
         "id":"075443-030-A_SHOW_ARTE_NEXT_DE_de",
         "duration":14,
         "title":"\"Good time\" - Interview mit Joshua und Ben Safdie",
         "subtitle":null,
         "url":"/de/videos/075443-030-A/good-time-interview-mit-joshua-und-ben-safdie",
         "kind":"SHOW",
         "images":[
            {
               "name":"075443-030-A_2087185.jpg",
               "extension":"jpg",
               "caption":"SAFDI",
               "url":"https://static-cdn.arte.tv/resize/agKRq2xzI2lDefWV7qtOpf2wAZY=/940x530/smart/apios/Img_data/27/075443-030-A_2087185.jpg",
               "imageId":"2087185",
               "programId":"075443-030-A",
               "language":"de",
               "copyright":"",
               "creationDate":"2017-05-28T16:33:39Z",
               "lastModified":"2017-05-29T07:32:42Z",
               "width":940,
               "height":530,
               "keyframe":false,
               "alternateResolutions":[
                  {
                     "url":"https://static-cdn.arte.tv/resize/agKRq2xzI2lDefWV7qtOpf2wAZY=/940x530/smart/apios/Img_data/27/075443-030-A_2087185.jpg",
                     "width":940,
                     "height":530,
                     "imageSize":"940x530"
                  },
                  {
                     "url":"https://static-cdn.arte.tv/resize/PU__IvNhTbaf9FrwtzsyxvSnqgE=/625x224/smart/apios/Img_data/27/075443-030-A_2087185.jpg",
                     "width":625,
                     "height":224,
                     "imageSize":"625x224"
                  },
                  {
                     "url":"https://static-cdn.arte.tv/resize/R0M82MUT9aZk2M7hADFpUMTbl-U=/1920x1080/smart/apios/Img_data/27/075443-030-A_2087185.jpg",
                     "width":1920,
                     "height":1080,
                     "imageSize":"1920x1080"
                  },
                  {
                     "url":"https://static-cdn.arte.tv/resize/9ZpQjfX8TD6vAjgJEErCcC0Sku0=/720x406/smart/apios/Img_data/27/075443-030-A_2087185.jpg",
                     "width":720,
                     "height":406,
                     "imageSize":"720x406"
                  },
                  {
                     "url":"https://static-cdn.arte.tv/resize/xhkrWSMvpPt8vS-DxB-i1pkj9fg=/400x225/smart/apios/Img_data/27/075443-030-A_2087185.jpg",
                     "width":400,
                     "height":225,
                     "imageSize":"400x225"
                  }
               ],
               "type":"DEFAULT",
               "format":"landscape"
            }
         ]
      },
      {
         "id":"075443-029-A_SHOW_ARTE_NEXT_DE_de",
         "duration":8,
         "title":"\"Le Ciel étoilé au-dessus de ma tête\" - Interview mit Klipper und Poitrenaux",
         "subtitle":null,
         "url":"/de/videos/075443-029-A/le-ciel-etoile-au-dessus-de-ma-tete-interview-mit-klipper-und-poitrenaux",
         "kind":"SHOW",
         "images":[
            {
               "name":"075443-029-A_2086942.jpg",
               "extension":"jpg",
               "caption":"\"Le Ciel étoilé au-dessus de ma tête\" - Rencontre avec Klipper et Poitrenaux",
               "url":"https://static-cdn.arte.tv/resize/atJiVkF54ccHdYI5lNwwTHs9c1s=/940x530/smart/apios/Img_data/5/075443-029-A_2086942.jpg",
               "imageId":"2086942",
               "programId":"075443-029-A",
               "language":"de",
               "copyright":"",
               "creationDate":"2017-05-27T14:03:37Z",
               "lastModified":"2017-05-29T07:46:28Z",
               "width":940,
               "height":530,
               "keyframe":false,
               "alternateResolutions":[
                  {
                     "url":"https://static-cdn.arte.tv/resize/atJiVkF54ccHdYI5lNwwTHs9c1s=/940x530/smart/apios/Img_data/5/075443-029-A_2086942.jpg",
                     "width":940,
                     "height":530,
                     "imageSize":"940x530"
                  },
                  {
                     "url":"https://static-cdn.arte.tv/resize/16AidkuGhQSnToi7UKVKyOtQs5k=/625x224/smart/apios/Img_data/5/075443-029-A_2086942.jpg",
                     "width":625,
                     "height":224,
                     "imageSize":"625x224"
                  },
                  {
                     "url":"https://static-cdn.arte.tv/resize/Xau3tmAWOh7UPgpvCrSr2_uYxeM=/1920x1080/smart/apios/Img_data/5/075443-029-A_2086942.jpg",
                     "width":1920,
                     "height":1080,
                     "imageSize":"1920x1080"
                  },
                  {
                     "url":"https://static-cdn.arte.tv/resize/e06Dyh1KED1L0_q9FlLdrRrzOtg=/720x406/smart/apios/Img_data/5/075443-029-A_2086942.jpg",
                     "width":720,
                     "height":406,
                     "imageSize":"720x406"
                  },
                  {
                     "url":"https://static-cdn.arte.tv/resize/HN2Hq3lBvVfIzf1Gfc2GGG8gdeg=/400x225/smart/apios/Img_data/5/075443-029-A_2086942.jpg",
                     "width":400,
                     "height":225,
                     "imageSize":"400x225"
                  }
               ],
               "type":"DEFAULT",
               "format":"landscape"
            }
         ]
      }
   ]
}