{
   "meta":{
      "videos":{
         "page":1,
         "limit":10,
         "pages":23,
         "totalCount":221,
         "href":"https://api.arte.tv/api/opa/v3/videos?availableScreens=desktop&imageSize=940x530%2C625x224%2C1920x1080%2C720x406%2C400x225&page=1&videoLibrary=true&subcategory.code=ACC&language=de&limit=10&platform=ARTE_NEXT&sort=-videoRightsBegin",
         "links":{
            "first":{
               "href":"https://api.arte.tv/api/opa/v3/videos?availableScreens=desktop&imageSize=940x530%2C625x224%2C1920x1080%2C720x406%2C400x225&page=1&videoLibrary=true&subcategory.code=ACC&language=de&limit=10&platform=ARTE_NEXT&sort=-videoRightsBegin"
            },
            "next":{
               "href":"https://api.arte.tv/api/opa/v3/videos?availableScreens=desktop&imageSize=940x530%2C625x224%2C1920x1080%2C720x406%2C400x225&page=2&videoLibrary=true&subcategory.code=ACC&language=de&limit=10&platform=ARTE_NEXT&sort=-videoRightsBegin"
            }
         }
      }
   },
   "videos":[
      {
         "id":"073658-000-A_SHOW_ARTE_NEXT_DE_de",
         "duration":2,
         "title":"Warum es sich lohnt, \"Deutschland im Jahre Null\" anzuschauen",
         "subtitle":null,
         "url":"http://www.arte.tv/de/videos/073658-000-A/warum-es-sich-lohnt-deutschland-im-jahre-null-anzuschauen",
         "kind":"SHOW",
         "images":[
            {
               "name":"073658-000-A_1008.jpg",
               "extension":"jpg",
               "caption":null,
               "url":"https://static-cdn.arte.tv/resize/jmvCD0OYz_LxXnwtUIwO68YNSAg=/trim:top-left:30/940x530/smart/filters:strip_icc()/apios/Img_data/14/073658-000-A_1008.jpg",
               "imageId":"2138731",
               "programId":"073658-000-A",
               "language":"de",
               "copyright":"",
               "creationDate":"2017-07-19T15:25:24Z",
               "lastModified":"2017-07-19T15:36:39Z",
               "width":940,
               "height":530,
               "keyframe":true,
               "alternateResolutions":[
                  {
                     "url":"https://static-cdn.arte.tv/resize/jmvCD0OYz_LxXnwtUIwO68YNSAg=/trim:top-left:30/940x530/smart/filters:strip_icc()/apios/Img_data/14/073658-000-A_1008.jpg",
                     "width":940,
                     "height":530,
                     "imageSize":"940x530"
                  },
                  {
                     "url":"https://static-cdn.arte.tv/resize/Gn1hsY9hzHKRcW0tPvE4-qBc70Q=/trim:top-left:30/625x224/smart/filters:strip_icc()/apios/Img_data/14/073658-000-A_1008.jpg",
                     "width":625,
                     "height":224,
                     "imageSize":"625x224"
                  },
                  {
                     "url":"https://static-cdn.arte.tv/resize/ZIT4FOGu8RH2Nt-PSi-oO3xSaqw=/trim:top-left:30/1920x1080/smart/filters:strip_icc()/apios/Img_data/14/073658-000-A_1008.jpg",
                     "width":1920,
                     "height":1080,
                     "imageSize":"1920x1080"
                  },
                  {
                     "url":"https://static-cdn.arte.tv/resize/si7fFUxb50d-XABn9cVducPSlrI=/trim:top-left:30/720x406/smart/filters:strip_icc()/apios/Img_data/14/073658-000-A_1008.jpg",
                     "width":720,
                     "height":406,
                     "imageSize":"720x406"
                  },
                  {
                     "url":"https://static-cdn.arte.tv/resize/5jU2ri2vPj9kwDLzYvJTHVUHx2g=/trim:top-left:30/400x225/smart/filters:strip_icc()/apios/Img_data/14/073658-000-A_1008.jpg",
                     "width":400,
                     "height":225,
                     "imageSize":"400x225"
                  }
               ],
               "type":"KEYFRAME",
               "format":"landscape"
            }
         ]
      },
      {
         "id":"053299-141-A_SHOW_ARTE_NEXT_DE_de",
         "duration":3,
         "title":"Plan Seance 141",
         "subtitle":null,
         "url":"http://www.arte.tv/de/videos/053299-141-A/plan-seance-141",
         "kind":"SHOW",
         "images":[
            {
               "name":"053299-141-A_2136670.jpg",
               "extension":"jpg",
               "caption":"Film ab!",
               "url":"https://static-cdn.arte.tv/resize/KYvjzx4JsPXnLjBkQlXs_EMPO1M=/940x530/smart/filters:strip_icc()/apios/Img_data/29/053299-141-A_2136670.jpg",
               "imageId":"2136670",
               "programId":"053299-141-A",
               "language":"de",
               "copyright":"",
               "creationDate":"2017-07-18T10:14:45Z",
               "lastModified":"2017-07-18T10:36:58Z",
               "width":940,
               "height":530,
               "keyframe":false,
               "alternateResolutions":[
                  {
                     "url":"https://static-cdn.arte.tv/resize/KYvjzx4JsPXnLjBkQlXs_EMPO1M=/940x530/smart/filters:strip_icc()/apios/Img_data/29/053299-141-A_2136670.jpg",
                     "width":940,
                     "height":530,
                     "imageSize":"940x530"
                  },
                  {
                     "url":"https://static-cdn.arte.tv/resize/2cdo1EAyrnO7qwHCWGsCgfQq_q0=/625x224/smart/filters:strip_icc()/apios/Img_data/29/053299-141-A_2136670.jpg",
                     "width":625,
                     "height":224,
                     "imageSize":"625x224"
                  },
                  {
                     "url":"https://static-cdn.arte.tv/resize/pouQ-4CRJ9Nh_ujeLhcT5-xx2LQ=/1920x1080/smart/filters:strip_icc()/apios/Img_data/29/053299-141-A_2136670.jpg",
                     "width":1920,
                     "height":1080,
                     "imageSize":"1920x1080"
                  },
                  {
                     "url":"https://static-cdn.arte.tv/resize/jZLZluMWb3tC6vV_WXNUigGUp9Y=/720x406/smart/filters:strip_icc()/apios/Img_data/29/053299-141-A_2136670.jpg",
                     "width":720,
                     "height":406,
                     "imageSize":"720x406"
                  },
                  {
                     "url":"https://static-cdn.arte.tv/resize/b2D3vXgiZSTL8GNubx6YNdyptYc=/400x225/smart/filters:strip_icc()/apios/Img_data/29/053299-141-A_2136670.jpg",
                     "width":400,
                     "height":225,
                     "imageSize":"400x225"
                  }
               ],
               "type":"DEFAULT",
               "format":"landscape"
            }
         ]
      },
      {
         "id":"072401-061-A_SHOW_ARTE_NEXT_DE_de",
         "duration":23,
         "title":"Blow up - Das Schwimmbad im Film",
         "subtitle":null,
         "url":"http://www.arte.tv/de/videos/072401-061-A/blow-up-das-schwimmbad-im-film",
         "kind":"SHOW",
         "images":[
            {
               "name":"072401-061-A_2127601.jpg",
               "extension":"jpg",
               "caption":"\"something's got to give\" mit Marilyn Monroe",
               "url":"https://static-cdn.arte.tv/resize/djKyisc0Stp_eWwsd0qLKNwYuWE=/940x530/smart/filters:strip_icc()/apios/Img_data/10/072401-061-A_2127601.jpg",
               "imageId":"2127601",
               "programId":"072401-061-A",
               "language":"de",
               "copyright":"",
               "creationDate":"2017-07-07T09:11:46Z",
               "lastModified":"2017-07-14T07:20:55Z",
               "width":940,
               "height":530,
               "keyframe":false,
               "alternateResolutions":[
                  {
                     "url":"https://static-cdn.arte.tv/resize/djKyisc0Stp_eWwsd0qLKNwYuWE=/940x530/smart/filters:strip_icc()/apios/Img_data/10/072401-061-A_2127601.jpg",
                     "width":940,
                     "height":530,
                     "imageSize":"940x530"
                  },
                  {
                     "url":"https://static-cdn.arte.tv/resize/i9J9uibxlxw5OOWRftC2ImWhXgE=/625x224/smart/filters:strip_icc()/apios/Img_data/10/072401-061-A_2127601.jpg",
                     "width":625,
                     "height":224,
                     "imageSize":"625x224"
                  },
                  {
                     "url":"https://static-cdn.arte.tv/resize/rdfWbQttGsbGnSKNZFo6UOHhhwA=/1920x1080/smart/filters:strip_icc()/apios/Img_data/10/072401-061-A_2127601.jpg",
                     "width":1920,
                     "height":1080,
                     "imageSize":"1920x1080"
                  },
                  {
                     "url":"https://static-cdn.arte.tv/resize/fg8pEZ0zDDkj5ki2RK_eEDxtzak=/720x406/smart/filters:strip_icc()/apios/Img_data/10/072401-061-A_2127601.jpg",
                     "width":720,
                     "height":406,
                     "imageSize":"720x406"
                  },
                  {
                     "url":"https://static-cdn.arte.tv/resize/EkFKFCdM9M-wmS37k9o1l5idVEs=/400x225/smart/filters:strip_icc()/apios/Img_data/10/072401-061-A_2127601.jpg",
                     "width":400,
                     "height":225,
                     "imageSize":"400x225"
                  }
               ],
               "type":"DEFAULT",
               "format":"landscape"
            }
         ]
      },
      {
         "id":"072401-059-A_SHOW_ARTE_NEXT_DE_de",
         "duration":11,
         "title":"Blow up - Die Vor- und Abspanne von Arnold Schwarzenegger",
         "subtitle":null,
         "url":"http://www.arte.tv/de/videos/072401-059-A/blow-up-die-vor-und-abspanne-von-arnold-schwarzenegger",
         "kind":"SHOW",
         "images":[
            {
               "name":"072401-059-A_2122434.jpg",
               "extension":"jpg",
               "caption":"Terminator 2 - Arnold Schwarzenegger",
               "url":"https://static-cdn.arte.tv/resize/YKYhB-5RkV6fsN3P2biR-HQrtQk=/940x530/smart/filters:strip_icc()/apios/Img_data/16/072401-059-A_2122434.jpg",
               "imageId":"2122434",
               "programId":"072401-059-A",
               "language":"de",
               "copyright":"",
               "creationDate":"2017-07-03T14:43:16Z",
               "lastModified":"2017-07-06T16:49:25Z",
               "width":940,
               "height":530,
               "keyframe":false,
               "alternateResolutions":[
                  {
                     "url":"https://static-cdn.arte.tv/resize/YKYhB-5RkV6fsN3P2biR-HQrtQk=/940x530/smart/filters:strip_icc()/apios/Img_data/16/072401-059-A_2122434.jpg",
                     "width":940,
                     "height":530,
                     "imageSize":"940x530"
                  },
                  {
                     "url":"https://static-cdn.arte.tv/resize/IU2qPEZh_uwJ0r28N2rJ3mQDgYU=/625x224/smart/filters:strip_icc()/apios/Img_data/16/072401-059-A_2122434.jpg",
                     "width":625,
                     "height":224,
                     "imageSize":"625x224"
                  },
                  {
                     "url":"https://static-cdn.arte.tv/resize/cvROL6BjsIOgqP9HIrQPXjNZhkc=/1920x1080/smart/filters:strip_icc()/apios/Img_data/16/072401-059-A_2122434.jpg",
                     "width":1920,
                     "height":1080,
                     "imageSize":"1920x1080"
                  },
                  {
                     "url":"https://static-cdn.arte.tv/resize/XhNLFRx0DZKdQfvXwRL3FTyzYMk=/720x406/smart/filters:strip_icc()/apios/Img_data/16/072401-059-A_2122434.jpg",
                     "width":720,
                     "height":406,
                     "imageSize":"720x406"
                  },
                  {
                     "url":"https://static-cdn.arte.tv/resize/dxalDCFzOaoQ_so-8O0vXwtVaac=/400x225/smart/filters:strip_icc()/apios/Img_data/16/072401-059-A_2122434.jpg",
                     "width":400,
                     "height":225,
                     "imageSize":"400x225"
                  }
               ],
               "type":"DEFAULT",
               "format":"landscape"
            }
         ]
      },
      {
         "id":"072401-060-A_SHOW_ARTE_NEXT_DE_de",
         "duration":13,
         "title":"Blow up - Andrei Tarkowski aus der Sicht von Dominique Gonzalez-Foerster",
         "subtitle":null,
         "url":"http://www.arte.tv/de/videos/072401-060-A/blow-up-andrei-tarkowski-aus-der-sicht-von-dominique-gonzalez-foerster",
         "kind":"SHOW",
         "images":[
            {
               "name":"072401-060-A_2122477.jpg",
               "extension":"jpg",
               "caption":"\"Solaris\" Andrei Tarkovski",
               "url":"https://static-cdn.arte.tv/resize/KcE4uooMIBGsuUAYmO6iFRIEOMk=/940x530/smart/filters:strip_icc()/apios/Img_data/15/072401-060-A_2122477.jpg",
               "imageId":"2122477",
               "programId":"072401-060-A",
               "language":"de",
               "copyright":"",
               "creationDate":"2017-07-03T14:03:49Z",
               "lastModified":"2017-07-05T15:34:38Z",
               "width":940,
               "height":530,
               "keyframe":false,
               "alternateResolutions":[
                  {
                     "url":"https://static-cdn.arte.tv/resize/KcE4uooMIBGsuUAYmO6iFRIEOMk=/940x530/smart/filters:strip_icc()/apios/Img_data/15/072401-060-A_2122477.jpg",
                     "width":940,
                     "height":530,
                     "imageSize":"940x530"
                  },
                  {
                     "url":"https://static-cdn.arte.tv/resize/eEbXY_yeTokhK4slgoWyInMMsVI=/625x224/smart/filters:strip_icc()/apios/Img_data/15/072401-060-A_2122477.jpg",
                     "width":625,
                     "height":224,
                     "imageSize":"625x224"
                  },
                  {
                     "url":"https://static-cdn.arte.tv/resize/O-eCJtQCJX1SeonCK2_XNEBCQDE=/1920x1080/smart/filters:strip_icc()/apios/Img_data/15/072401-060-A_2122477.jpg",
                     "width":1920,
                     "height":1080,
                     "imageSize":"1920x1080"
                  },
                  {
                     "url":"https://static-cdn.arte.tv/resize/1azR67ZzJVIDguJnBe2D5ZfYo7s=/720x406/smart/filters:strip_icc()/apios/Img_data/15/072401-060-A_2122477.jpg",
                     "width":720,
                     "height":406,
                     "imageSize":"720x406"
                  },
                  {
                     "url":"https://static-cdn.arte.tv/resize/kwanAoa6LAB6mAGe6MZUcG_XLtI=/400x225/smart/filters:strip_icc()/apios/Img_data/15/072401-060-A_2122477.jpg",
                     "width":400,
                     "height":225,
                     "imageSize":"400x225"
                  }
               ],
               "type":"DEFAULT",
               "format":"landscape"
            }
         ]
      },
      {
         "id":"076512-000-A_SHOW_ARTE_NEXT_DE_de",
         "duration":2,
         "title":"Warum es sich lohnt, \"Rote Laterne\" anzuschauen",
         "subtitle":null,
         "url":"http://www.arte.tv/de/videos/076512-000-A/warum-es-sich-lohnt-rote-laterne-anzuschauen",
         "kind":"SHOW",
         "images":[
            {
               "name":"076512-000-A_1089.jpg",
               "extension":"jpg",
               "caption":null,
               "url":"https://static-cdn.arte.tv/resize/AK0MwV2Blxf434iAsnO-bW1B4WM=/trim:top-left:30/940x530/smart/filters:strip_icc()/apios/Img_data/15/076512-000-A_1089.jpg",
               "imageId":"2124969",
               "programId":"076512-000-A",
               "language":"de",
               "copyright":"",
               "creationDate":"2017-07-05T12:10:58Z",
               "lastModified":"2017-07-05T12:12:00Z",
               "width":940,
               "height":530,
               "keyframe":true,
               "alternateResolutions":[
                  {
                     "url":"https://static-cdn.arte.tv/resize/AK0MwV2Blxf434iAsnO-bW1B4WM=/trim:top-left:30/940x530/smart/filters:strip_icc()/apios/Img_data/15/076512-000-A_1089.jpg",
                     "width":940,
                     "height":530,
                     "imageSize":"940x530"
                  },
                  {
                     "url":"https://static-cdn.arte.tv/resize/lGN30ypvGwKElAEh1t3s-YRwRsw=/trim:top-left:30/625x224/smart/filters:strip_icc()/apios/Img_data/15/076512-000-A_1089.jpg",
                     "width":625,
                     "height":224,
                     "imageSize":"625x224"
                  },
                  {
                     "url":"https://static-cdn.arte.tv/resize/5GHZZAm0Y2CIL2KMYpjR9CSc1lo=/trim:top-left:30/1920x1080/smart/filters:strip_icc()/apios/Img_data/15/076512-000-A_1089.jpg",
                     "width":1920,
                     "height":1080,
                     "imageSize":"1920x1080"
                  },
                  {
                     "url":"https://static-cdn.arte.tv/resize/LDlCyI8W2oVEjZZ8RneZK6pkx8o=/trim:top-left:30/720x406/smart/filters:strip_icc()/apios/Img_data/15/076512-000-A_1089.jpg",
                     "width":720,
                     "height":406,
                     "imageSize":"720x406"
                  },
                  {
                     "url":"https://static-cdn.arte.tv/resize/XHcM2Dd_IWWc4G-x0YN9etVLtW4=/trim:top-left:30/400x225/smart/filters:strip_icc()/apios/Img_data/15/076512-000-A_1089.jpg",
                     "width":400,
                     "height":225,
                     "imageSize":"400x225"
                  }
               ],
               "type":"KEYFRAME",
               "format":"landscape"
            }
         ]
      },
      {
         "id":"076511-000-A_SHOW_ARTE_NEXT_DE_de",
         "duration":2,
         "title":"Warum es sich lohnt, \"Dohee - Weglaufen kann jeder\" anzuschauen",
         "subtitle":null,
         "url":"http://www.arte.tv/de/videos/076511-000-A/warum-es-sich-lohnt-dohee-weglaufen-kann-jeder-anzuschauen",
         "kind":"SHOW",
         "images":[
            {
               "name":"076511-000-A_1056.jpg",
               "extension":"jpg",
               "caption":null,
               "url":"https://static-cdn.arte.tv/resize/jkqWuuuMYf6diig9Yc5ZaceFIWw=/trim:top-left:30/940x530/smart/filters:strip_icc()/apios/Img_data/8/076511-000-A_1056.jpg",
               "imageId":"2124979",
               "programId":"076511-000-A",
               "language":"de",
               "copyright":"",
               "creationDate":"2017-07-05T12:11:14Z",
               "lastModified":"2017-07-13T00:08:44Z",
               "width":940,
               "height":530,
               "keyframe":true,
               "alternateResolutions":[
                  {
                     "url":"https://static-cdn.arte.tv/resize/jkqWuuuMYf6diig9Yc5ZaceFIWw=/trim:top-left:30/940x530/smart/filters:strip_icc()/apios/Img_data/8/076511-000-A_1056.jpg",
                     "width":940,
                     "height":530,
                     "imageSize":"940x530"
                  },
                  {
                     "url":"https://static-cdn.arte.tv/resize/bCrM1X_aq2YLokVgn5LEJKER6WY=/trim:top-left:30/625x224/smart/filters:strip_icc()/apios/Img_data/8/076511-000-A_1056.jpg",
                     "width":625,
                     "height":224,
                     "imageSize":"625x224"
                  },
                  {
                     "url":"https://static-cdn.arte.tv/resize/82WoGo3T_JYSgrYOyGTaBwbT3f8=/trim:top-left:30/1920x1080/smart/filters:strip_icc()/apios/Img_data/8/076511-000-A_1056.jpg",
                     "width":1920,
                     "height":1080,
                     "imageSize":"1920x1080"
                  },
                  {
                     "url":"https://static-cdn.arte.tv/resize/zqgiG64emOq8i6bc05-6UoA8_Zc=/trim:top-left:30/720x406/smart/filters:strip_icc()/apios/Img_data/8/076511-000-A_1056.jpg",
                     "width":720,
                     "height":406,
                     "imageSize":"720x406"
                  },
                  {
                     "url":"https://static-cdn.arte.tv/resize/aB2joBeCBZaKR0VLZxyfWhvfZfw=/trim:top-left:30/400x225/smart/filters:strip_icc()/apios/Img_data/8/076511-000-A_1056.jpg",
                     "width":400,
                     "height":225,
                     "imageSize":"400x225"
                  }
               ],
               "type":"KEYFRAME",
               "format":"landscape"
            }
         ]
      },
      {
         "id":"076510-000-A_SHOW_ARTE_NEXT_DE_de",
         "duration":2,
         "title":"Warum es sich lohnt, \"Detective Dee und der Fluch des Seeungeheurs\" anzuschauen",
         "subtitle":null,
         "url":"http://www.arte.tv/de/videos/076510-000-A/warum-es-sich-lohnt-detective-dee-und-der-fluch-des-seeungeheurs-anzuschauen",
         "kind":"SHOW",
         "images":[
            {
               "name":"076510-000-A_1119.jpg",
               "extension":"jpg",
               "caption":null,
               "url":"https://static-cdn.arte.tv/resize/akaLKrKhW0S-FogrpfS05JXRI7E=/trim:top-left:30/940x530/smart/filters:strip_icc()/apios/Img_data/7/076510-000-A_1119.jpg",
               "imageId":"2124974",
               "programId":"076510-000-A",
               "language":"de",
               "copyright":"",
               "creationDate":"2017-07-05T12:11:06Z",
               "lastModified":"2017-07-13T00:08:36Z",
               "width":940,
               "height":530,
               "keyframe":true,
               "alternateResolutions":[
                  {
                     "url":"https://static-cdn.arte.tv/resize/akaLKrKhW0S-FogrpfS05JXRI7E=/trim:top-left:30/940x530/smart/filters:strip_icc()/apios/Img_data/7/076510-000-A_1119.jpg",
                     "width":940,
                     "height":530,
                     "imageSize":"940x530"
                  },
                  {
                     "url":"https://static-cdn.arte.tv/resize/kT18XU_pdq4P_6SLcUvU5WkpGpk=/trim:top-left:30/625x224/smart/filters:strip_icc()/apios/Img_data/7/076510-000-A_1119.jpg",
                     "width":625,
                     "height":224,
                     "imageSize":"625x224"
                  },
                  {
                     "url":"https://static-cdn.arte.tv/resize/L09ein9Rgc5NdOIuZ_jyARgu6cY=/trim:top-left:30/1920x1080/smart/filters:strip_icc()/apios/Img_data/7/076510-000-A_1119.jpg",
                     "width":1920,
                     "height":1080,
                     "imageSize":"1920x1080"
                  },
                  {
                     "url":"https://static-cdn.arte.tv/resize/aVN22jdiYhbPALvLjp9ob5h91dM=/trim:top-left:30/720x406/smart/filters:strip_icc()/apios/Img_data/7/076510-000-A_1119.jpg",
                     "width":720,
                     "height":406,
                     "imageSize":"720x406"
                  },
                  {
                     "url":"https://static-cdn.arte.tv/resize/r92rsq0IJgbmHGZdSnohO62Vv1c=/trim:top-left:30/400x225/smart/filters:strip_icc()/apios/Img_data/7/076510-000-A_1119.jpg",
                     "width":400,
                     "height":225,
                     "imageSize":"400x225"
                  }
               ],
               "type":"KEYFRAME",
               "format":"landscape"
            }
         ]
      },
      {
         "id":"053299-140-A_SHOW_ARTE_NEXT_DE_de",
         "duration":3,
         "title":"Die Kinostarts der Woche",
         "subtitle":null,
         "url":"http://www.arte.tv/de/videos/053299-140-A/die-kinostarts-der-woche",
         "kind":"SHOW",
         "images":[
            {
               "name":"053299-140-A_1840973.jpg",
               "extension":"jpg",
               "caption":"Film ab!",
               "url":"https://static-cdn.arte.tv/resize/JJhrhAn_KWfospUG38OuOHe0JvI=/940x530/smart/filters:strip_icc()/apios/Img_data/5/053299-140-A_1840973.jpg",
               "imageId":"1840973",
               "programId":"053299-140-A",
               "language":"de",
               "copyright":"",
               "creationDate":"2016-09-21T09:18:59Z",
               "lastModified":"2017-07-09T00:03:06Z",
               "width":940,
               "height":530,
               "keyframe":false,
               "alternateResolutions":[
                  {
                     "url":"https://static-cdn.arte.tv/resize/JJhrhAn_KWfospUG38OuOHe0JvI=/940x530/smart/filters:strip_icc()/apios/Img_data/5/053299-140-A_1840973.jpg",
                     "width":940,
                     "height":530,
                     "imageSize":"940x530"
                  },
                  {
                     "url":"https://static-cdn.arte.tv/resize/11bpBMtXdCHRo5O20H_JbclDbwM=/625x224/smart/filters:strip_icc()/apios/Img_data/5/053299-140-A_1840973.jpg",
                     "width":625,
                     "height":224,
                     "imageSize":"625x224"
                  },
                  {
                     "url":"https://static-cdn.arte.tv/resize/Dd02AOOgSmCZwjkssjUThxgVq14=/1920x1080/smart/filters:strip_icc()/apios/Img_data/5/053299-140-A_1840973.jpg",
                     "width":1920,
                     "height":1080,
                     "imageSize":"1920x1080"
                  },
                  {
                     "url":"https://static-cdn.arte.tv/resize/6VRkLJSjLQzeijpp8s0nJeyAkRk=/720x406/smart/filters:strip_icc()/apios/Img_data/5/053299-140-A_1840973.jpg",
                     "width":720,
                     "height":406,
                     "imageSize":"720x406"
                  },
                  {
                     "url":"https://static-cdn.arte.tv/resize/PIrYyL8J7_EVhisTxSE2tmlHyz8=/400x225/smart/filters:strip_icc()/apios/Img_data/5/053299-140-A_1840973.jpg",
                     "width":400,
                     "height":225,
                     "imageSize":"400x225"
                  }
               ],
               "type":"DEFAULT",
               "format":"landscape"
            }
         ]
      },
      {
         "id":"072401-058-A_SHOW_ARTE_NEXT_DE_de",
         "duration":13,
         "title":"Blow up - Robert Altman aus der Sicht von Thierry Jousse",
         "subtitle":null,
         "url":"http://www.arte.tv/de/videos/072401-058-A/blow-up-robert-altman-aus-der-sicht-von-thierry-jousse",
         "kind":"SHOW",
         "images":[
            {
               "name":"072401-058-A_2115628.jpg",
               "extension":"jpg",
               "caption":"\"Der Tod kennt keine Wiederkehr\" Robert Altman",
               "url":"https://static-cdn.arte.tv/resize/zjetf3BLead0HTEHs9-5Q997-aE=/940x530/smart/filters:strip_icc()/apios/Img_data/22/072401-058-A_2115628.jpg",
               "imageId":"2115628",
               "programId":"072401-058-A",
               "language":"de",
               "copyright":"",
               "creationDate":"2017-06-26T10:26:44Z",
               "lastModified":"2017-06-29T13:24:48Z",
               "width":940,
               "height":530,
               "keyframe":false,
               "alternateResolutions":[
                  {
                     "url":"https://static-cdn.arte.tv/resize/zjetf3BLead0HTEHs9-5Q997-aE=/940x530/smart/filters:strip_icc()/apios/Img_data/22/072401-058-A_2115628.jpg",
                     "width":940,
                     "height":530,
                     "imageSize":"940x530"
                  },
                  {
                     "url":"https://static-cdn.arte.tv/resize/zy4uL2JXaLT0Zoq0_q-uvgl2TjQ=/625x224/smart/filters:strip_icc()/apios/Img_data/22/072401-058-A_2115628.jpg",
                     "width":625,
                     "height":224,
                     "imageSize":"625x224"
                  },
                  {
                     "url":"https://static-cdn.arte.tv/resize/CZV-yhyQmDGmKgr6NjZSTrOD08w=/1920x1080/smart/filters:strip_icc()/apios/Img_data/22/072401-058-A_2115628.jpg",
                     "width":1920,
                     "height":1080,
                     "imageSize":"1920x1080"
                  },
                  {
                     "url":"https://static-cdn.arte.tv/resize/jvC1gLCYw2Mtx_4CRxnTu20hmsc=/720x406/smart/filters:strip_icc()/apios/Img_data/22/072401-058-A_2115628.jpg",
                     "width":720,
                     "height":406,
                     "imageSize":"720x406"
                  },
                  {
                     "url":"https://static-cdn.arte.tv/resize/BP1C7-FhurbgpwLUY5atEO6oVW4=/400x225/smart/filters:strip_icc()/apios/Img_data/22/072401-058-A_2115628.jpg",
                     "width":400,
                     "height":225,
                     "imageSize":"400x225"
                  }
               ],
               "type":"DEFAULT",
               "format":"landscape"
            }
         ]
      }
   ]
}