{
  "meta": {
    "subcategories": {
      "totalCount": 36,
      "limit": 5,
      "href": "https:\/\/api.arte.tv\/api\/opa\/v3\/subcategories?language=de&limit=5&page=2",
      "pages": 8,
      "page": 2,
      "links": {
        "first": {
          "href": "https:\/\/api.arte.tv\/api\/opa\/v3\/subcategories?language=de&limit=5&page=1"
        },
        "next": {
          "href": "http:\/\/localhost:8589\/api\/opa\/v3\/subcategories?language=de&limit=5&page=3"
        },
        "previous": {
          "href": "https:\/\/api.arte.tv\/api\/opa\/v3\/subcategories?language=de&limit=5&page=1"
        }
      }
    }
  },
  "subcategories": [
    {
      "id": "XXE_de",
      "code": "XXE",
      "language": "de",
      "label": "Das 20. Jahrhundert",
      "slug": "das-20-jahrhundert",
      "url": "https:\/\/www.arte.tv\/de\/videos\/geschichte\/das-20-jahrhundert\/",
      "description": "Spannende Analysen der dramatischen Geschichte des vergangenen Jahrhunderts.",
      "category": {
        "order": 8,
        "code": "HIS",
        "name": "Geschichte",
        "url": "https:\/\/www.arte.tv\/de\/videos\/geschichte\/",
        "slug": "geschichte"
      },
      "order": 1
    },
    {
      "id": "SAN_de",
      "code": "SAN",
      "language": "de",
      "label": "Gesundheit und Medizin",
      "slug": "gesundheit-und-medizin",
      "url": "https:\/\/www.arte.tv\/de\/videos\/wissenschaft\/gesundheit-und-medizin\/",
      "description": "Zwischen Hightech und Heilkunst- spannende Einblicke in den menschlichen Körper.",
      "category": {
        "order": 6,
        "code": "SCI",
        "name": "Wissenschaft",
        "url": "https:\/\/www.arte.tv\/de\/videos\/wissenschaft\/",
        "slug": "wissenschaft"
      },
      "order": 1
    },
    {
      "id": "SES_de",
      "code": "SES",
      "language": "de",
      "label": "Serien",
      "slug": "serien",
      "url": "https:\/\/www.arte.tv\/de\/videos\/fernsehfilme-und-serien\/serien\/",
      "description": "Krimiserie, Komödie, Science-Fiction oder Familiensaga: Spannung in Serie auf ARTE.",
      "category": {
        "order": 3,
        "code": "SER",
        "name": "Fernsehfilme und Serien",
        "url": "https:\/\/www.arte.tv\/de\/videos\/fernsehfilme-und-serien\/",
        "slug": "fernsehfilme-und-serien"
      },
      "order": 1
    },
    {
      "id": "NEA_de",
      "code": "NEA",
      "language": "de",
      "label": "Natur und Tiere",
      "slug": "natur-und-tiere",
      "url": "https:\/\/www.arte.tv\/de\/videos\/entdeckung-der-welt\/natur-und-tiere\/",
      "description": "Exotische Orte und starke Bilder – faszinierende Streifzüge durch Natur und Tierwelt.",
      "category": {
        "order": 7,
        "code": "DEC",
        "name": "Entdeckung der Welt",
        "url": "https:\/\/www.arte.tv\/de\/videos\/entdeckung-der-welt\/",
        "slug": "entdeckung-der-welt"
      },
      "order": 1
    },
    {
      "id": "ART_de",
      "code": "ART",
      "language": "de",
      "label": "Kunst",
      "slug": "kunst",
      "url": "https:\/\/www.arte.tv\/de\/videos\/kultur-und-pop\/kunst\/",
      "description": "Die spannendsten Kunstformen der Gegenwart, von Malerei über Theater und Architektur bis hin zu Videospielen. ",
      "category": {
        "order": 4,
        "code": "CPO",
        "name": "Kultur und Pop",
        "url": "https:\/\/www.arte.tv\/de\/videos\/kultur-und-pop\/",
        "slug": "kultur-und-pop"
      },
      "order": 1
    }
  ]
}