{
    "meta": {
        "videos": {
            "totalCount": 14151,
            "limit": 100,
            "href": "https:\/\/api.arte.tv\/api\/opa\/v3\/videos?language=de&limit=100&page=28&sort=-creationDate",
            "pages": 142,
            "page": 28,
            "links": {
                "first": {
                    "href": "https:\/\/api.arte.tv\/api\/opa\/v3\/videos?language=de&limit=100&page=1&sort=-creationDate"
                },
                "next": {
                    "href": "https:\/\/api.arte.tv\/api\/opa\/v3\/videos?language=de&limit=100&page=29&sort=-creationDate"
                },
                "previous": {
                    "href": "https:\/\/api.arte.tv\/api\/opa\/v3\/videos?language=de&limit=100&page=27&sort=-creationDate"
                }
            }
        }
    },
    "videos": [
        {
            "firstBroadcastDate": null,
            "id": "118208-012-A_SHOW_ARTE_NEXT_DE_de",
            "programId": "118208-012-A",
            "mainReassembly": true,
            "reassembly": "A",
            "channel": "DE",
            "language": "de",
            "kind": "SHOW",
            "catalogType": "STANDALONE",
            "programType": "INTERNET",
            "programFamily": "PROGRAM",
            "platform": "ARTE_NEXT",
            "platformLabel": "ARTE",
            "title": "Raúl Paz",
            "subtitle": "Musikalische Höhenflüge",
            "originalTitle": "Les Concerts Volants 2024 (12\/20)",
            "originalLanguage": {
                "arteCode": "MUS",
                "label": "musikalisch",
                "iso6391Code": ""
            },
            "tags": [],
            "twitterAccount": null,
            "twitterHashTag": null,
            "durationSeconds": 2130,
            "shortDescription": "Raúl Paz ist als Vertreter der franko-kubanischen Musik bei den Musikalischen Höhenflügen zu Gast. Im Cabaret Sauvage präsentiert der Musiker mit Guajiro Chic ein Album, auf dem er sich auf seine Wurzeln zurückbesinnt.",
            "shortDescriptionRich": "<p>Raúl Paz ist als Vertreter der franko-kubanischen Musik bei den Musikalischen Höhenflügen zu Gast. Im Cabaret Sauvage präsentiert der Musiker mit <i>Guajiro Chic<\/i> ein Album, auf dem er sich auf seine Wurzeln zurückbesinnt.<\/p>",
            "fullDescription": "Raúl Paz wurde 1969 auf Kuba in der Region Pinar del Río geboren. Im Alter von 25 Jahren zog er nach Frankreich, wo er traditionelle kubanische Musik mit anderen Einflüssen kombinierte und modernisierte. Im Laufe seiner Alben schuf er einen eigenen, franko-kubanischen Musikstil und wurde zu einem der bedeutendsten Vertreter zeitgenössischer kubanischer Musik.\n\n2009 kehrte Raúl Paz nach 15 Jahren wieder nach Kuba zurück. In der Gegend von Pinar del Río entdeckte er beim Musizieren mit Ortsansässigen den für seine Heimat typischen Stil Gujira wieder für sich. Diese Erfahrung war der Initialzünder für sein Album Guajiro Chic, auf dem er mit gewohnter Kreativität Tradition und Moderne, Ehrfurcht und Unbekümmertheit, kubanische Einflüsse und Weltmusik vereint. Ein bunter musikalischer Cocktail, der das Cabaret Sauvage in die Farben der Karibik taucht.\n\nAufzeichnung vom 24. Februar 2024 im Cabaret Sauvage, Paris.",
            "fullDescriptionRich": "<p>Raúl Paz wurde 1969 auf Kuba in der Region Pinar del Río geboren. Im Alter von 25 Jahren zog er nach Frankreich, wo er traditionelle kubanische Musik mit anderen Einflüssen kombinierte und modernisierte. Im Laufe seiner Alben schuf er einen eigenen, franko-kubanischen Musikstil und wurde zu einem der bedeutendsten Vertreter zeitgenössischer kubanischer Musik.<br \/><br \/>2009 kehrte Raúl Paz nach 15 Jahren wieder nach Kuba zurück. In der Gegend von Pinar del Río entdeckte er beim Musizieren mit Ortsansässigen den für seine Heimat typischen Stil Gujira wieder für sich. Diese Erfahrung war der Initialzünder für sein Album <i>Guajiro Chic<\/i>, auf dem er mit gewohnter Kreativität Tradition und Moderne, Ehrfurcht und Unbekümmertheit, kubanische Einflüsse und Weltmusik vereint. Ein bunter musikalischer Cocktail, der das Cabaret Sauvage in die Farben der Karibik taucht.<br \/><br \/><b>Aufzeichnung vom 24. Februar 2024 im Cabaret Sauvage, Paris.<\/b><\/p>",
            "teaserText": "Der Kubaner Raúl Paz hat mit Guajira die traditionelle Musik seiner Heimatinsel für sich wiederentdeckt.",
            "teaserTextRich": "<p>Der Kubaner Raúl Paz hat mit Guajira die traditionelle Musik seiner Heimatinsel für sich wiederentdeckt.<\/p>",
            "headerText": null,
            "headerTextRich": null,
            "producer": null,
            "productionYear": 2024,
            "shootingDate": null,
            "allowEmbed": true,
            "adult": 0,
            "legalBan": "NONE",
            "mainImage": {
                "creationDate": "2012-08-24T22:00:00Z",
                "lastModified": "2025-03-06T10:22:42Z",
                "width": 940,
                "height": 530,
                "keyframe": false,
                "alternateResolutions": [],
                "type": "PHOTO_LANDSCAPE",
                "name": "118208-012-A_4590617.jpg",
                "extension": "jpg",
                "caption": null,
                "url": "https:\/\/api-cdn.arte.tv\/img\/v2\/image\/XBjdctT4yMTNfsHLFxL7xf\/940x530",
                "imageId": "4590617",
                "programId": "118208-012-A",
                "language": "de",
                "copyright": null,
                "blurImage": "https:\/\/api-cdn.arte.tv\/img\/v2\/image\/XBjdctT4yMTNfsHLFxL7xf\/80x45?blur=true",
                "kind": "internet"
            },
            "parents": [
                "RC-014819",
                "RC-023762",
                "118208-012-A"
            ],
            "collections": [
                {
                    "kind": "TOPIC",
                    "catalogType": "TOPIC",
                    "collectionId": "RC-014819",
                    "order": 9
                },
                {
                    "kind": "TOPIC",
                    "catalogType": "TOPIC",
                    "collectionId": "RC-023762",
                    "order": 6
                }
            ],
            "programmingId": 4761220,
            "videoRightsBegin": "2025-03-04T12:30:00Z",
            "videoRightsEnd": "2026-02-23T22:59:00Z",
            "mainProgramming": true,
            "mainChannel": true,
            "geoblockingZone": "ALL",
            "geoblocking": {
                "code": "ALL",
                "label": "Weltweit verfügbar",
                "inclusion": [],
                "exclusion": []
            },
            "partners": [],
            "director": null,
            "casting": [],
            "crew": [],
            "chapters": [],
            "chaptersSpriteUrl": null,
            "caseCode": 452,
            "case": "ARTE CONCERT (WEB UNIQUEMENT)",
            "genrePresseCode": 0,
            "genrePresse": "Andere",
            "tracking": {
                "tablet": {
                    "ANDROID": "https:\/\/www.arte.tv\/pa\/api\/multimedia\/v1\/118208-012\/A\/de\/ARTE_NEXT\/TABLET\/ANDROID\/arte.gif"
                },
                "mobile": {
                    "ANDROID": "https:\/\/www.arte.tv\/pa\/api\/multimedia\/v1\/118208-012\/A\/de\/ARTE_NEXT\/MOBILE\/ANDROID\/arte.gif"
                },
                "download": {
                    "ANDROID": "https:\/\/www.arte.tv\/pa\/api\/multimedia\/v1\/118208-012\/A\/de\/ARTE_NEXT\/DOWNLOAD\/ANDROID\/arte.gif"
                }
            },
            "mainAudioVersion": "VO",
            "audioVersions": [
                "VO"
            ],
            "permalink": "https:\/\/www.arte.tv\/de\/videos\/118208-012-A\/permalink\/",
            "infolink": "https:\/\/www.arte.tv\/de\/videos\/118208-012-A\/raul-paz\/",
            "availableScreens": [
                "desktop",
                "mobile",
                "tv"
            ],
            "oEmbed": "https:\/\/api.arte.tv\/api\/player\/v1\/oembed\/de\/118208-012-A?platform=ARTE_NEXT",
            "categories": [
                {
                    "order": 5,
                    "code": "MUD",
                    "name": "Weltmusik",
                    "url": null,
                    "slug": "weltmusik"
                }
            ],
            "category": {
                "order": 5,
                "code": "ARS",
                "name": "ARTE Concert",
                "url": "https:\/\/www.arte.tv\/de\/arte-concert\/",
                "slug": "arte-concert"
            },
            "subcategory": {
                "order": 8,
                "code": "MUD",
                "name": "World",
                "url": "https:\/\/www.arte.tv\/de\/p\/world",
                "slug": "world"
            },
            "views": 46,
            "thesaurus": [
                {
                    "code": 13091,
                    "label": "Musik der Karibik",
                    "parents": [
                        1,
                        613,
                        936,
                        4979,
                        988,
                        13091
                    ]
                },
                {
                    "code": 4998,
                    "label": "Reggae",
                    "parents": [
                        1,
                        613,
                        936,
                        4979,
                        988,
                        13091,
                        4998
                    ]
                },
                {
                    "code": 13145,
                    "label": "afrikanische Musik",
                    "parents": [
                        1,
                        613,
                        936,
                        4979,
                        988,
                        13145
                    ]
                },
                {
                    "code": 938,
                    "label": "Gesang",
                    "parents": [
                        1,
                        613,
                        936,
                        938
                    ]
                }
            ],
            "postroll": "https:\/\/api.arte.tv\/api\/player\/v1\/recommendedPostroll\/de\/118208-012-A",
            "mainPlatform": true,
            "imageColor": null,
            "arteSchedulingDay": null,
            "deletedAt": null,
            "productionCountries": [
                {
                    "arteCode": "FRA",
                    "isoAlpha2Code": "FR",
                    "label": "Frankreich"
                }
            ],
            "url": "https:\/\/www.arte.tv\/de\/videos\/118208-012-A\/raul-paz\/",
            "clusters": [],
            "illico": false,
            "season": 0,
            "episode": 0,
            "totalEpisodes": 0,
            "mainCrossPlatform": true,
            "kindLabel": "PROGRAMM",
            "videoLibrary": true,
            "broadcastBegin": null,
            "broadcastBeginRounded": null,
            "viewsPeriod": 46,
            "markings": [],
            "webLinks": [],
            "warning": null,
            "livestreamRights": true,
            "eStat": {
                "streamName": "Raúl Paz",
                "streamDuration": 2130,
                "streamGenre": "5_buehne-und-konzert",
                "level1": "ARS_arte-concert",
                "level2": "PROGRAMME_WEB",
                "level3": "de",
                "level4": "MUD_world",
                "level5": "118208-012-A",
                "newLevel1": "SHOW",
                "newLevel2": null,
                "newLevel11": "452_arte-concert-web-uniquement",
                "mediaChannel": "950",
                "mediaContentId": "118208-012-A",
                "mediaDiffMode": "TVOD"
            },
            "mediametrie": {
                "type": "content",
                "assetid": "118208-012-A_0",
                "program": "452_arte-concert-web-uniquement",
                "title": "raul-paz",
                "length": 2130,
                "islivestn": "n",
                "cli_md": "TVOD",
                "cli_ch": 950,
                "cli_cn": "118208-012-A",
                "nol_p0": "p0,de",
                "nol_p1": "p1,PROGRAMME_WEB",
                "nol_p2": "p2,SHOW",
                "nol_p13": "p13,n"
            },
            "adtech": {
                "kvprogramid": "118208-012-A",
                "kvvty": "ARTE_NEXT",
                "kvcategory": "ARS",
                "kvsubcategory": "MUD",
                "kvwebonly": true,
                "kvbroadcast": false,
                "kvduration": 2130,
                "kvcaseprogram": "452_arte-concert-web-uniquement",
                "kvvideoisolang": "de"
            },
            "agf": {
                "type": "content",
                "assetid": "118208-012-A",
                "program": "452_arte-concert-web-uniquement",
                "title": "raul-paz",
                "length": 2130,
                "nol_c2": "p2,Y",
                "nol_c7": "p7,118208-012-A",
                "nol_c8": "p8,2130",
                "nol_c9": "p9,raul-paz",
                "nol_c10": "p10,ARTE",
                "nol_c12": "p12,Content",
                "nol_c15": "p15,118208-012-A",
                "nol_c18": "p18,N"
            },
            "offlineAvailability": true,
            "genre": {
                "code": 5,
                "label": "Bühne und Konzert"
            },
            "audioLanguages": [
                {
                    "arteCode": "MUS",
                    "iso6392Code": "und",
                    "iso6391Code": "",
                    "label": "musikalisch",
                    "version": "VO",
                    "audioDescription": false
                }
            ],
            "subtitles": [],
            "versions": [
                {
                    "code": 3,
                    "audioCode": "VO",
                    "audioLabel": "Originalfassung",
                    "audioShortLabel": "OV",
                    "audioLanguage": "und",
                    "subtitleLanguage": "und",
                    "closedCaptioning": false,
                    "audioDescription": false
                }
            ],
            "origins": [
                {
                    "order": 1,
                    "label": "ARTE F"
                }
            ],
            "availableImages": [
                "POSTER_LANDSCAPE",
                "POSTER",
                "PHOTO_LANDSCAPE"
            ],
            "allowThirdPlayer": true,
            "externalIds": [],
            "broadcastType": null,
            "clearVoice": false,
            "ancestors": [
                {
                    "programId": "RC-014819",
                    "order": 9,
                    "kind": "TOPIC",
                    "catalogType": "TOPIC",
                    "ancestors": []
                },
                {
                    "programId": "RC-023762",
                    "order": 6,
                    "kind": "TOPIC",
                    "catalogType": "TOPIC",
                    "ancestors": []
                }
            ],
            "mainPlatformCode": null,
            "arteClub": false,
            "previewRightsBegin": "2025-03-04T12:30:00Z",
            "creationDate": "2025-03-04T11:19:32Z",
            "lastModified": "2025-06-18T08:25:44Z",
            "ageRating": 0,
            "imageReference": "XBjdctT4yMTNfsHLFxL7xf",
            "programmingType": "MANUAL",
            "links": {
                "programs": {
                    "href": "https:\/\/api.arte.tv\/api\/opa\/v3\/programs\/de\/118208-012-A"
                }
            }
        }
    ]
}
